%!PS-Adobe-2.0 EPSF-2.0
%%Title: /tmp/xfig-fig049874
%%Creator: fig2dev Version 2.1.8 Patchlevel 0
%%CreationDate: Fri Nov  4 08:12:35 1994
%%For: taddei@alphaix (Arnaud Taddei)
%%Orientation: Landscape
%%BoundingBox: 0 0 360 475
%%Pages: 0
%%EndComments
/$F2psDict 200 dict def 
$F2psDict begin
$F2psDict /mtrx matrix put
/l {lineto} bind def
/m {moveto} bind def
/s {stroke} bind def
/n {newpath} bind def
/gs {gsave} bind def
/gr {grestore} bind def
/clp {closepath} bind def
/graycol {dup dup currentrgbcolor 4 -2 roll mul 4 -2 roll mul
4 -2 roll mul setrgbcolor} bind def
/col-1 {} def
/col0 {0 0 0 setrgbcolor} bind def
/col1 {0 0 1 setrgbcolor} bind def
/col2 {0 1 0 setrgbcolor} bind def
/col3 {0 1 1 setrgbcolor} bind def
/col4 {1 0 0 setrgbcolor} bind def
/col5 {1 0 1 setrgbcolor} bind def
/col6 {1 1 0 setrgbcolor} bind def
/col7 {1 1 1 setrgbcolor} bind def
/col8 {.68 .85 .9 setrgbcolor} bind def
/col9 {0 .39 0 setrgbcolor} bind def
/col10 {.65 .17 .17 setrgbcolor} bind def
/col11 {1 .51 0 setrgbcolor} bind def
/col12 {.63 .13 .94 setrgbcolor} bind def
/col13 {1 .75 .8 setrgbcolor} bind def
/col14 {.7 .13 .13 setrgbcolor} bind def
/col15 {1 .84 0 setrgbcolor} bind def
 /DrawEllipse {
	/endangle exch def
	/startangle exch def
	/yrad exch def
	/xrad exch def
	/y exch def
	/x exch def
	/savematrix mtrx currentmatrix def
	x y translate xrad yrad scale 0 0 1 startangle endangle arc
	savematrix setmatrix
	} def

	end
/$F2psBegin {$F2psDict begin /$F2psEnteredState save def} def
/$F2psEnd {$F2psEnteredState restore end} def
%%EndProlog

$F2psBegin
0 setlinecap 0 setlinejoin
-36.0 -29.0 translate 90 rotate 0.900 -0.900 scale
0.500 setlinewidth
% Ellipse
n 124 339 11 11 0 360 DrawEllipse gs col-1 s gr
% Ellipse
n 364 339 11 11 0 360 DrawEllipse gs col-1 s gr
% Ellipse
n 244 179 11 11 0 360 DrawEllipse gs col-1 s gr
% Ellipse
n 244 259 11 11 0 360 DrawEllipse gs col-1 s gr
% Ellipse
n 244 423 11 11 0 360 DrawEllipse gs col-1 s gr
% Polyline
n 46 39 m 39 39 39 72 7 arcto 4 {pop} repeat 39 79 112 79 7 arcto 4 {pop} repeat 119 79 119 46 7 arcto 4 {pop} repeat 119 39 46 39 7 arcto 4 {pop} repeat clp gs 0.90 setgray fill gr
gs col-1 s gr
% Polyline
n 166 79 m 159 79 159 112 7 arcto 4 {pop} repeat 159 119 252 119 7 arcto 4 {pop} repeat 259 119 259 86 7 arcto 4 {pop} repeat 259 79 166 79 7 arcto 4 {pop} repeat clp gs 0.90 setgray fill gr
gs col-1 s gr
% Polyline
n 346 79 m 339 79 339 112 7 arcto 4 {pop} repeat 339 119 432 119 7 arcto 4 {pop} repeat 439 119 439 86 7 arcto 4 {pop} repeat 439 79 346 79 7 arcto 4 {pop} repeat clp gs 0.90 setgray fill gr
gs col-1 s gr
% Polyline
n 486 39 m 479 39 479 72 7 arcto 4 {pop} repeat 479 79 552 79 7 arcto 4 {pop} repeat 559 79 559 46 7 arcto 4 {pop} repeat 559 39 486 39 7 arcto 4 {pop} repeat clp gs 0.90 setgray fill gr
gs col-1 s gr
% Polyline
n 266 159 m 259 159 259 192 7 arcto 4 {pop} repeat 259 199 332 199 7 arcto 4 {pop} repeat 339 199 339 166 7 arcto 4 {pop} repeat 339 159 266 159 7 arcto 4 {pop} repeat clp gs 0.85 setgray fill gr
gs col-1 s gr
% Polyline
n 266 239 m 259 239 259 272 7 arcto 4 {pop} repeat 259 279 332 279 7 arcto 4 {pop} repeat 339 279 339 246 7 arcto 4 {pop} repeat 339 239 266 239 7 arcto 4 {pop} repeat clp gs 0.85 setgray fill gr
gs col-1 s gr
% Polyline
n 266 319 m 259 319 259 352 7 arcto 4 {pop} repeat 259 359 332 359 7 arcto 4 {pop} repeat 339 359 339 326 7 arcto 4 {pop} repeat 339 319 266 319 7 arcto 4 {pop} repeat clp gs 0.85 setgray fill gr
gs col-1 s gr
% Polyline
n 146 319 m 139 319 139 352 7 arcto 4 {pop} repeat 139 359 212 359 7 arcto 4 {pop} repeat 219 359 219 326 7 arcto 4 {pop} repeat 219 319 146 319 7 arcto 4 {pop} repeat clp gs 0.85 setgray fill gr
gs col-1 s gr
% Polyline
n 386 319 m 379 319 379 352 7 arcto 4 {pop} repeat 379 359 452 359 7 arcto 4 {pop} repeat 459 359 459 326 7 arcto 4 {pop} repeat 459 319 386 319 7 arcto 4 {pop} repeat clp gs 0.85 setgray fill gr
gs col-1 s gr
% Polyline
n 266 399 m 259 399 259 432 7 arcto 4 {pop} repeat 259 439 332 439 7 arcto 4 {pop} repeat 339 439 339 406 7 arcto 4 {pop} repeat 339 399 266 399 7 arcto 4 {pop} repeat clp gs 0.85 setgray fill gr
gs col-1 s gr
% Polyline
n 53 427 m 219 427 l gs col-1 s gr
n 211.000 425.000 m 219.000 427.000 l 211.000 429.000 l gs 2 setlinejoin col-1 s gr
n 358.000 429.000 m 350.000 427.000 l 358.000 425.000 l gs 2 setlinejoin col-1 s gr
% Polyline
n 350 427 m 542 427 l gs col-1 s gr
n 457.000 109.000 m 449.000 107.000 l 457.000 105.000 l gs 2 setlinejoin col-1 s gr
% Polyline
n 449 107 m 524 107 l gs col-1 s gr
% Polyline
n 211 123 m 259 155 l gs col-1 s gr
n 253.453 148.898 m 259.000 155.000 l 251.234 152.226 l gs 2 setlinejoin col-1 s gr
% Polyline
n 388 123 m 340 155 l gs col-1 s gr
n 347.766 152.226 m 340.000 155.000 l 345.547 148.898 l gs 2 setlinejoin col-1 s gr
% Ellipse
n 244 339 11 11 0 360 DrawEllipse gs col-1 s gr
% Polyline
n 294 204 m 294 234 l gs col-1 s gr
n 296.000 226.000 m 294.000 234.000 l 292.000 226.000 l gs 2 setlinejoin col-1 s gr
/Times-Roman findfont 12.00 scalefont setfont
362 344 m 
gs 1 -1 scale (5) col-1 show gr
% Polyline
n 293 284 m 293 315 l gs col-1 s gr
n 295.000 307.000 m 293.000 315.000 l 291.000 307.000 l gs 2 setlinejoin col-1 s gr
% Polyline
n 265 284 m 219 316 l gs col-1 s gr
n 226.709 313.073 m 219.000 316.000 l 224.425 309.790 l gs 2 setlinejoin col-1 s gr
% Polyline
n 333 285 m 376 317 l gs col-1 s gr
n 370.776 310.619 m 376.000 317.000 l 368.388 313.828 l gs 2 setlinejoin col-1 s gr
	[4.000000] 0 setdash
% Polyline
n 293 363 m 293 393 l gs col-1 s gr
	[] 0 setdash
n 295.000 385.000 m 293.000 393.000 l 291.000 385.000 l gs 2 setlinejoin col-1 s gr
% Interpolated spline
n 219 416 m
	126.219 416.407 86.219 407.407 59 380 curveto
	30.917 351.722 32.784 286.135 32 256 curveto
	31.274 228.088 35.917 166.760 51 140 curveto
	57.917 127.728 78.760 109.883 92 105 curveto
	102.500 101.128 116.750 101.128 149 105 curveto
gs col-1 s gr
n 141.295 102.061 m 149.000 105.000 l 140.819 106.032 l gs 2 setlinejoin col-1 s gr
/Times-Roman findfont 12.00 scalefont setfont
59 64 m 
gs 1 -1 scale (Mode 1) col-1 show gr
/Times-Roman findfont 12.00 scalefont setfont
499 64 m 
gs 1 -1 scale (Mode 2) col-1 show gr
/Times-Roman findfont 12.00 scalefont setfont
179 104 m 
gs 1 -1 scale (Central files) col-1 show gr
/Times-Roman findfont 12.00 scalefont setfont
364 104 m 
gs 1 -1 scale (Wrappers) col-1 show gr
/Times-Roman findfont 12.00 scalefont setfont
284 184 m 
gs 1 -1 scale (HEP) col-1 show gr
/Times-Roman findfont 12.00 scalefont setfont
284 264 m 
gs 1 -1 scale (SITE) col-1 show gr
/Times-Roman findfont 12.00 scalefont setfont
154 344 m 
gs 1 -1 scale (SYSTEM) col-1 show gr
/Times-Roman findfont 12.00 scalefont setfont
274 344 m 
gs 1 -1 scale (CLUSTER) col-1 show gr
/Times-Roman findfont 12.00 scalefont setfont
399 344 m 
gs 1 -1 scale (GROUP) col-1 show gr
/Times-Roman findfont 12.00 scalefont setfont
284 424 m 
gs 1 -1 scale (USER) col-1 show gr
/Times-Roman findfont 12.00 scalefont setfont
241 427 m 
gs 1 -1 scale (6) col-1 show gr
/Times-Roman findfont 12.00 scalefont setfont
243 184 m 
gs 1 -1 scale (1) col-1 show gr
/Times-Roman findfont 12.00 scalefont setfont
242 265 m 
gs 1 -1 scale (2) col-1 show gr
/Times-Roman findfont 12.00 scalefont setfont
123 345 m 
gs 1 -1 scale (3) col-1 show gr
/Times-Roman findfont 12.00 scalefont setfont
242 345 m 
gs 1 -1 scale (4) col-1 show gr
$F2psEnd
