\relax 
\@writefile{los}{\protect \l@slide {1}{\ignorespaces Roadmap}{1}}
\@writefile{los}{\protect \l@slide {2}{\ignorespaces User-system interactions /1}{2}}
\@writefile{los}{\protect \l@slide {3}{\ignorespaces User-system interactions /2}{3}}
\@writefile{los}{\protect \l@slide {4}{\ignorespaces Multidimensional problem}{4}}
\@writefile{los}{\protect \l@slide {5}{\ignorespaces Shells considerations}{5}}
\@writefile{los}{\protect \l@slide {6}{\ignorespaces X11 considerations}{6}}
\@writefile{los}{\protect \l@slide {7}{\ignorespaces Applications considerations}{7}}
\@writefile{los}{\protect \l@slide {8}{\ignorespaces Connectivity considerations}{8}}
\@writefile{los}{\protect \l@slide {9}{\ignorespaces User profiles - Average users}{9}}
\@writefile{los}{\protect \l@slide {10}{\ignorespaces User profiles - Advanced users}{10}}
\@writefile{los}{\protect \l@slide {11}{\ignorespaces Goal}{11}}
\@writefile{los}{\protect \l@slide {12}{\ignorespaces Target}{12}}
\@writefile{los}{\protect \l@slide {13}{\ignorespaces More on the target}{13}}
\@writefile{los}{\protect \l@slide {14}{\ignorespaces Who are the sysadmins?}{14}}
\@writefile{los}{\protect \l@slide {15}{\ignorespaces For a user}{15}}
\@writefile{los}{\protect \l@slide {16}{\ignorespaces For a system administrator}{16}}
\@writefile{los}{\protect \l@slide {17}{\ignorespaces Who should NOT get the HEPiX scripts}{17}}
\@writefile{los}{\protect \l@slide {18}{\ignorespaces General view on the components}{18}}
\@writefile{los}{\protect \l@slide {19}{\ignorespaces Levels - Mechanical aspects}{19}}
\@writefile{los}{\protect \l@slide {20}{\ignorespaces Levels - Conceptual aspects}{20}}
\@writefile{los}{\protect \l@slide {21}{\ignorespaces Shells}{21}}
\@writefile{los}{\protect \l@slide {22}{\ignorespaces Shells - Status}{22}}
\@writefile{los}{\protect \l@slide {23}{\ignorespaces X11 - Topics /1}{23}}
\@writefile{los}{\protect \l@slide {24}{\ignorespaces X11 - Topics /2}{24}}
\@writefile{los}{\protect \l@slide {25}{\ignorespaces X11 - Font servers new setting}{25}}
\@writefile{los}{\protect \l@slide {26}{\ignorespaces HEPiX Xsession - Overview /1}{26}}
\@writefile{los}{\protect \l@slide {27}{\ignorespaces HEPiX Xsession - Overview /2}{27}}
\@writefile{los}{\protect \l@slide {28}{\ignorespaces HEPiX Xsession - Overview /3}{28}}
\@writefile{los}{\protect \l@slide {29}{\ignorespaces HEPiX Xsession - Overview /4}{29}}
\@writefile{los}{\protect \l@slide {30}{\ignorespaces HEPiX Xsession - Overview /5}{30}}
\@writefile{los}{\protect \l@slide {31}{\ignorespaces HEPiX Xsession - Example with PCs and ADAM}{31}}
\@writefile{los}{\protect \l@slide {32}{\ignorespaces Tools /1}{32}}
\@writefile{los}{\protect \l@slide {33}{\ignorespaces Tools /2}{33}}
\@writefile{los}{\protect \l@slide {34}{\ignorespaces Templates}{34}}
\@writefile{los}{\protect \l@slide {35}{\ignorespaces Documentation}{35}}
\@writefile{los}{\protect \l@slide {36}{\ignorespaces Documentation - A list}{36}}
\@writefile{los}{\protect \l@slide {37}{\ignorespaces HEPiX documents}{37}}
\@writefile{los}{\protect \l@slide {38}{\ignorespaces Software Quality Assurance /1}{38}}
\@writefile{los}{\protect \l@slide {39}{\ignorespaces Software Quality Assurance /2}{39}}
\@writefile{los}{\protect \l@slide {40}{\ignorespaces Integration with ASIS, SUE, CORE}{40}}
\@writefile{los}{\protect \l@slide {41}{\ignorespaces Deployment}{41}}
\@writefile{los}{\protect \l@slide {42}{\ignorespaces Structures involved}{42}}
\@writefile{los}{\protect \l@slide {43}{\ignorespaces Project - People involved}{43}}
\@writefile{los}{\protect \l@slide {44}{\ignorespaces Project history}{44}}
\@writefile{los}{\protect \l@slide {45}{\ignorespaces Future}{45}}
\@writefile{los}{\protect \l@slide {46}{\ignorespaces Availability}{46}}
\@writefile{los}{\protect \l@slide {47}{\ignorespaces Contacts - Where to find?}{47}}
\@writefile{los}{\protect \l@slide {48}{\ignorespaces Support and Maintenance}{48}}
\@writefile{los}{\protect \l@slide {49}{\ignorespaces Conclusion}{49}}
