%!PS-Adobe-1.0
%%Creator: Steve Holden
%%Modified: John Macdonald, Rich Burridge, Rainer Klute
%%Modified: Bertrand Decouty, Bjorn P. Brox
%%Title: @(#)mp.pro.ps 1.2 93/12/19
%%CreationDate: see above
%%PageLength 72
%%LineLength 80
%%NumCols 1
%%DocumentFonts: Courier Helvetica-BoldOblique Times-Bold Times-Roman
%%Pages: (atend)
%%EndComments

%  @(#)mp.common.ps 1.3 93/12/22
%
%  Mp PostScript routines common to all prologue files.
%
%  The initial header comments are read (and output to stdout)
%  from the individual prologue file, then the contents of this
%  file are read (and output to stdout), then the remainder of
%  the individual prologue file.

/inch { 72 mul } bind def
/cm { 72 mul 2.54 div } def

gsave initclip clippath flattenpath pathbbox grestore
/topedge    exch def
/rightedge  exch def
/bottomedge exch def
/leftedge   exch def
%  exchanged later if landscape
/fullwidth  rightedge leftedge sub def
/fullheight topedge bottomedge sub def
% DO NOT change: used to translate user coordinate system at each page
/paperwidth fullwidth def
/paperheight fullheight def
/port_y bottomedge def
/port_x leftedge def

/topOffset    0.1 inch def
/bottomOffset 0.1 inch def
/rightOffset  0.1 inch def
/leftOffset   0.1 inch def

/papertopOffset topOffset def
/paperbottomOffset bottomOffset def
/paperrightOffset rightOffset def
/paperleftOffset leftOffset def

% Define /ISOLatin1Encoding only if it's not already there.
/ISOLatin1Encoding where { pop save true }{ false } ifelse
  /ISOLatin1Encoding [ StandardEncoding 0 45 getinterval aload pop /minus
    StandardEncoding 46 98 getinterval aload pop /dotlessi /grave /acute
    /circumflex /tilde /macron /breve /dotaccent /dieresis /.notdef /ring
    /cedilla /.notdef /hungarumlaut /ogonek /caron /space /exclamdown /cent
    /sterling /currency /yen /brokenbar /section /dieresis /copyright
    /ordfeminine /guillemotleft /logicalnot /hyphen /registered /macron
    /degree /plusminus /twosuperior /threesuperior /acute /mu /paragraph
    /periodcentered /cedilla /onesuperior /ordmasculine /guillemotright
    /onequarter /onehalf /threequarters /questiondown /Agrave /Aacute
    /Acircumflex /Atilde /Adieresis /Aring /AE /Ccedilla /Egrave /Eacute
    /Ecircumflex /Edieresis /Igrave /Iacute /Icircumflex /Idieresis /Eth
    /Ntilde /Ograve /Oacute /Ocircumflex /Otilde /Odieresis /multiply
    /Oslash /Ugrave /Uacute /Ucircumflex /Udieresis /Yacute /Thorn
    /germandbls /agrave /aacute /acircumflex /atilde /adieresis /aring /ae
    /ccedilla /egrave /eacute /ecircumflex /edieresis /igrave /iacute
    /icircumflex /idieresis /eth /ntilde /ograve /oacute /ocircumflex
    /otilde /odieresis /divide /oslash /ugrave /uacute /ucircumflex
    /udieresis /yacute /thorn /ydieresis ] def
{ restore } if

%Title: backspacefont.ps suggested by Glenn Reid (Adobe Systems).

/backspacefont {
    /CourierISO findfont dup length dict begin
        { %forall
            1 index /FID eq { pop pop } { def } ifelse
        } forall
        currentdict /UniqueID known { %if
              /UniqueID UniqueID 16#800000 xor def
        } if
        CharStrings length 1 add dict begin
            CharStrings { def } forall
          /backspace { -600 0 setcharwidth pop } bind def
            currentdict
      end
        /CharStrings exch def
        /Encoding Encoding 256 array copy def
        Encoding 8 /backspace put
        currentdict
    end
    definefont pop
} bind def

/reencodeISO { %def
    findfont dup length dict begin
    { 1 index /FID ne { def }{ pop pop } ifelse } forall
    /Encoding ISOLatin1Encoding def
    currentdict end definefont pop
} bind def
/bottomOffset 8 def
/leftOffset 60 def
/rightOffset 8 def
/topOffset 8 def


/setmargin {
  LandscapeMode
  {
    rightedge topedge
    /rightedge exch def
    /topedge exch def
  }  
  if
  9 7 LandscapeMode { exch } if pop
  /FontSize exch def

  /boxHeight  40 def
  /radius     10 def
  /topedge    topedge    topOffset    sub def
  /bottomedge bottomedge bottomOffset add def
  /leftedge   leftedge   leftOffset   add def
  /rightedge  rightedge  rightOffset  sub def

  /font1d     /Times-Bold            reencodeISO
  /font2d     /Times-Roman           reencodeISO
  /CourierISO /Courier               reencodeISO
  /fontHd     /Helvetica-BoldOblique reencodeISO
  /fontH2     /Helvetica-BoldOblique reencodeISO
  /font3d backspacefont
 
  /BoldFont      { /font1d findfont FontSize scalefont setfont } def
  /pf            { /font2d findfont FontSize scalefont setfont } def
  /sf            { /font3d findfont FontSize scalefont setfont } def
  /fontH         { /fontHd findfont 14 scalefont setfont } def
  /fontD         { /fontH2 findfont 10 scalefont setfont } def
} bind def


/graybox	% grey llx lly urx ury graybox --
{
    newpath
    3 index radius add 3 index           % llx+radius lly
    moveto
    1 index 3 index                      % urx        lly
    3 index 3 index                      % urx        ury
    radius arcto pop pop pop pop
    1 index 1 index
    5 index 3 index
    radius arcto pop pop pop pop
    3 index 1 index
    5 index 5 index
    radius arcto pop pop pop pop
    pop pop
    2 copy radius add lineto
    radius add
    exch radius add exch
    radius 180 270 arc
    gsave
    setgray fill
    grestore
    0 setgray stroke
} bind def


/toptopbottom   % toptopbottom -- % redefines boxtop and boxbottom
{
  /boxtop topedge def
  /boxbottom topedge boxHeight sub def
} def

 
/bottomtopbottom % bottomtopbottom -- % redefines boxtop and boxbottom
{
  /boxbottom bottomedge def
  /boxtop bottomedge boxHeight add def
} def

 
/setsubjtop
{
  /subjtopbottom {toptopbottom} def
  /nametopbottom {bottomtopbottom} def
  /switchtopbottom {setnametop} def
} def

 
/setnametop
{
  /subjtopbottom {bottomtopbottom} def
  /nametopbottom {toptopbottom} def
  /switchtopbottom {setsubjtop} def
} def

 
setnametop


/endpage		% page_number endpage --
{
  gsave
    % listing type, user, date across the bottom
    nametopbottom
    0.88                                        % gray level
    leftedge boxbottom                          % bottom left corner
    rightedge boxHeight 1.1 mul sub boxtop      % top right corner
    graybox

    currentdict /sfactor known not
    {
      % determine a suitable factor to scale down the header text (done
      % only once per document)
      rightedge
      leftedge sub
      radius 2 mul sub
      boxHeight 1.1 mul sub   % available space
      fontD MailFor stringwidth pop
      fontH User    stringwidth pop add
            (  )    stringwidth pop add
      fontD TimeNow stringwidth pop add    % total length of strings
      div
      dup 1 gt {pop 1} if                  % does it fit?
      /sfactor exch def                    % if not scale down
    }
    if

    /stringXPos leftedge radius add def
    /stringYPos boxtop boxHeight 2 div sub FontSize 2 div sub def
    stringXPos stringYPos moveto
    gsave
    sfactor dup scale
    fontD MailFor show
    fontH User    show
          (  )    show
    grestore
    fontD
    /stringXPos rightedge boxHeight 1.1 mul sub radius sub
                TimeNow stringwidth pop sfactor mul sub def
    stringXPos stringYPos moveto
    gsave
    sfactor dup scale
    TimeNow show
    grestore
    % page number to the top right corner
    1                                              % gray level
    rightedge boxHeight sub boxtop boxHeight sub   % bottom left
    rightedge boxtop                               % top right
    graybox
    fontD
    (Page) dup stringwidth
       boxtop boxHeight 2 div sub 2 add exch sub             % y-centered
       exch 2 div rightedge boxHeight 2 div sub exch sub     % x-centered
       exch moveto show
    fontH
    dup stringwidth
       boxtop boxHeight 2 div sub 12 sub exch sub            % y-centered
       exch 2 div rightedge boxHeight 2 div sub exch sub     % x-centered
       exch moveto show
    % subject (title) centred across the top
    subjtopbottom

    0.88                                 % gray level
    leftedge boxbottom                   % bottom left corner
    rightedge boxbottom boxHeight add    % top right corner
    graybox
    fontH
    % compute x pos for centering
      % ((l+50) + (r-50)) / 2 is the page centre
      leftedge rightedge add 2 div
      % but we want to start at the beginning of the string, not the middle
      Subject stringwidth pop 2 div sub
    % y pos is simple
      boxbottom boxHeight 2 div add 5 sub
      moveto
    Subject show
  grestore
  showpage		% display it
} bind def


/endcol			% page_number col_number endcol --
{
  pop			% get rid of col_number
  pop                   % get rid of page_number
  /ypos topedge def
  /xpos rightedge leftedge sub 2 div def
  xpos ypos moveto
} bind def


/newpage	% page_number newpage --
{
  pop		% pageno
  LandscapeMode {setlandscape} if
  /lct 0 def
  /ypos topedge boxHeight sub 10 2 mul sub def
  /xpos leftedge def
  xpos ypos moveto
  sf
} bind def


/setlandscape
{
  612 0 translate
  90 rotate
} bind def


/showline
{
  show
  /ypos ypos FontSize sub def
  xpos ypos moveto
} bind def


% see the trouble shooting section in the README for details on setscreen.
106 45 {dup mul exch dup mul add 1.0 exch sub} setscreen

/LandscapeMode false def

setmargin
statusdict /setduplexmode known { statusdict begin true setduplexmode end } if
%%EndProlog
%%Page: ? 1
1 newpage
/MailFor (Listing for ) def
/User (Arnaud Taddei) def
/TimeNow (Tue Oct 17 10:26:00 1995) def
/Subject (unify.txt) def
sf () showline
() showline
() showline
(Some time ago I sent a mail about SITE and GROUP_DIR variables. ) showline
(I have been delayed many times since then but eventually here is a ) showline
(proposal about several topics: ) showline
(   1 - group hook at HEP level scripts) showline
(   2 - better agreement on what should be the HEP level variables, ) showline
(       what should be their default. We should probably provide HEP ) showline
(       level sys.conf.[c]sh files.) showline
(   3 - agreement on naming schemes for some HEP variables) showline
(       3.1 - "HEP_SITE" variable) showline
(       3.2 - "OS" variable\(s\)) showline
(   4 - replication of group and site level scripts accross HEP sites) showline
() showline
() showline
(1 - Group Hook at HEP level scripts) showline
(===================================) showline
(   The current situation is the following. As I said already in my first mail) showline
(   when we reviewed the HEPiX with Axel in spring 1994, we had no strong ) showline
(   recommendations for a group level variable and we didn't understand that) showline
(   the hook should be put at HEP level.) showline
() showline
(   This is unacceptable anymore because collaborations are not Site dependent:) showline
(   they are spread over the world!!! We must do something!) showline
() showline
(   Moreover, Thomas's remark is very good when he mentioned that:) showline
(   "There are still a lot of people who do not believe in this support) showline
(   and which are still copying bad dot files from one account to another.) showline
(   I believe this support is rather essential as the hepix scripts itself) showline
(   because this is the support for group independent site hopping".) showline
() showline
(   And I believe that Thomas's point of view is the good one.) showline
() showline
(   Now the situation is the following:) showline
() showline
(      The HEP level has builtin hooks to provide a Site level customisation.) showline
(      The Site level is RESPONSIBLE for providing or not a Group level) showline
(      the way the Site managers want it.) showline
(      ) showline
(      So, we have:) showline
(                             ) showline
(        HEP     calling) showline
(          |----------------> Site     calling) showline
(                                |---------------> System     -|) showline
(                                |---------------> Cluster     |-customisations) showline
(                                |---------------> Group      -|) showline
(        ) showline
(   My proposal is that we move to a situation where) showline
() showline
(      The HEP level has a builtin hook to provide a Site level customisation) showline
(      but is also responsible for providing at least a Group level and) showline
(      should may be provide all the other hooks, ) showline
() showline
(      So we would have) showline
() showline
(        HEP     calling) showline
(          |----------------> Site       -|) showline
(          |----------------> System      |) showline
(          |----------------> Cluster     |-customisations) showline
(          |----------------> Group      -|) showline
() showline
() showline
(   Then, we would have a common way to access the "group" customisations.) showline
(   Keep in mind that as the system retrieves its information across) showline
(   the information provided by the previous levels, site, system, cluster, ) showline
(   it is always possible that any site implements its own location for group ) showline
(   customisation files.) showline
() showline
(   This implies that we must agree on the name of environment variable) showline
(   which is going to store the location of the group files.) showline
() showline
sf (1) 1 endcol
(1) endpage
%%Page: ? 2
2 newpage
/MailFor (Listing for ) def
/User (Arnaud Taddei) def
/TimeNow (Tue Oct 17 10:26:00 1995) def
/Subject (unify.txt) def
sf (   1\) the HEPiX scripts evaluate which is the group path from the HEP,) showline
(      Site System and Cluster levels.) showline
(   2\) the value for the group hook is then set. The HEPiX scripts can) showline
(      retrieve any group level customisation.) showline
() showline
(   My proposal would be to use HEP_GROUP_DIR variable to store the location) showline
(   of the group level customisation.) showline
() showline
() showline
(2 - Better agreement on what should be the HEP level variables) showline
(==============================================================) showline
(    Some variables are said to be HEP variables, like OS, USERPATH,) showline
(    etc. \(The variable SITE could be another candidate here\). ) showline
(    Although  these variable must be set by the site administrator,) showline
(    it doesn't mean that they have a meaning at HEP level.) showline
() showline
(    But, the OS variable is a good example of the kind of problems) showline
(    we are facing: ) showline
(  ) showline
(    We agreed that we need this variable but we never agreed on the) showline
(    value.) showline
() showline
(    So, I propose that we review these variables and check whether) showline
(    they should be set at Site level or at HEP level.) showline
() showline
(    If they require to be set at HEP level, then I would propose that ) showline
(    there exists an HEP_sys.conf.[c]sh file which would be sourced by) showline
(    the HEP_csh.cshrc or HEP_zshenv files.) showline
() showline
(3 - Agreement on naming schemes for some HEP variables) showline
(======================================================) showline
(    3.1 - "HEP_SITE" variable) showline
(    -------------------------) showline
(       It could be useful to have an HEP_SITE variable. Although ) showline
(       people should tell me what is the aim of this variable.) showline
(       It could be like at DESY used for hostname to be not fully qualified?) showline
(       Is it something we want?) showline
(       What does IN2P3 want to do with it? Do you want to access customisation) showline
(       files which maybe Site dependent because you are spread over France?) showline
(       Do you want to identify sub-sites?) showline
(       Sould we use the "IP" naming scheme like in my previous mail 'desy.de') showline
(       or a HEP invented naming scheme like 'DESY', 'CERN', 'IN2P3', etc.) showline
() showline
(    3.2 - "OS" variable\(s\)) showline
(    ----------------------) showline
(       The variable OS is a very nasty example because, what should be its ) showline
(       value:) showline
(       The output of for example a 'uname' command? How then to distinguish) showline
(       between SunOS and Solaris? ) showline
(       Do we want to distinguish between HP-UX9 and HP-UX10? AIX3 and AIX4?) showline
(       ) showline
(       A proposal would be that:) showline
(        1 - the value of OS is the output from the uname command unless ) showline
(            we have to distinguish \(example is SunOS, Solaris\). So we would) showline
(            have OS=HP-UX regardless of the version.) showline
(        2 - Arnaud Taddei initially proposed that we introduce) showline
(            the variable HEP_ADV_OS with a value which is more detailed. The) showline
(            naming scheme could be:) showline
(                HEP_ADV_OS = $OS$version) showline
(            and then we would end with:) showline
(               HEP_ADV_OS=AIX4) showline
(               HEP_ADV_OS=HP-UX10) showline
(               ...) showline
(        3 - A good and fast OS naming-scheme conversion tool. An example) showline
(            could be based on Thomas's bintype command. We could as) showline
(            well use the GNU's naming scheme. Any proposal here would ) showline
(            be welcome.) showline
() showline
(        Another variant for this proposal would be \(from Lionel Cons\):) showline
() showline
(        "I think we need at least a "simple" variable \(OS = HP-UX\) and a more) showline
(         complete information either with one "complete" variable \(ADV_OS =) showline
sf (2) 1 endcol
(2) endpage
%%Page: ? 3
3 newpage
/MailFor (Listing for ) def
/User (Arnaud Taddei) def
/TimeNow (Tue Oct 17 10:26:00 1995) def
/Subject (unify.txt) def
sf (         HP-UX_9.01\) or with other separate variables like \(OS_VERS = 9.01\).) showline
() showline
(         I don't think we should invent new names like Solaris, BTW SunOS 4 is) showline
(         also Solaris 1... I vote for using uname output.) showline
() showline
(         Why not:) showline
() showline
(         if \($OS =  "SunOS" && $OS_VERS >= 5\) then) showline
(                ... solaris 2 code) showline
(         endif) showline
() showline
(         If you really want to use other names, you can also consider GNU's) showline
(         naming scheme.") showline
() showline
() showline
() showline
() showline
(4 - Replication of group and site level scripts accross HEP sites) showline
(=================================================================) showline
(    Because the group settings are cross boundaries \(Atlas, CMS, etc.\)) showline
(    somebody working in Atlas at RAL should have the same group setting as) showline
(    somebody working in Atlas at CERN. ) showline
() showline
(    AFS allows us to access each others settings, but I believe that speed) showline
(    is not acceptable. Thus, my feeling, we need a replication mechanism) showline
(    between the sites.) showline
() showline
(    Now, my ideas in this area are very fuzzy in respect of the organisation) showline
(    of such a mechanism. Any feedback is welcome.) showline
() showline
() showline
(#===========================================================================) showline
(# Annex: my previous mail) showline
(#===========================================================================) showline
(From taddei@dxcern.cern.chThu Oct 12 10:31:59 1995) showline
(Date: Wed, 7 Jun 1995 09:28:01 +0200 \(METDST\)) showline
(From: Arnaud Taddei <taddei@dxcern.cern.ch>) showline
(To: Wojcieh Wojcik <wojcik@cc.in2p3.fr>) showline
(Cc: Thomas Finnern <finnern@desy.de>, Axel Koehler <koehler@ifh.de>,) showline
(    Lionel Cons <cons@dxcern.cern.ch>) showline
(Subject: SITE and GROUP_DIR variables) showline
() showline
() showline
(Hi Wojcieh,) showline
() showline
(        I hope you had a good trip back to France. I was pleased) showline
(to meet you and discuss with you) showline
() showline
() showline
(SITE variable) showline
(-------------) showline
(on the SITE variable, just to show you how it starts:) showline
() showline
(                        Variable        Default) showline
(        ----------------------------------------------) showline
(        CERN:           no such variable) showline
(        DESY Hamburg:   SITE            desy.de) showline
(        DESY Zeuthen:   no such variable) showline
(        IN2P3:          SITE            CCIN2P3) showline
() showline
(Question: should we set this variable to:) showline
() showline
(        1 - a HEP name like CCIN2P3) showline
(        2 - an 'afs' or 'dfs' kind of name like 'desy.de', 'cern.ch', etc.) showline
() showline
(In the 1st case the advantage is that you don't rely on the presence of) showline
(AFS or DFS you are not bound with it.) showline
() showline
(In the 2nd case the advantage is that you can automatically calculate) showline
(the SITE variable and if you bet AFS and DFS cells are going to grow) showline
(in the future, then it's OK.) showline
() showline
sf (3) 1 endcol
(3) endpage
%%Page: ? 4
4 newpage
/MailFor (Listing for ) def
/User (Arnaud Taddei) def
/TimeNow (Tue Oct 17 10:26:00 1995) def
/Subject (unify.txt) def
sf () showline
(This is just a small discussion to collect ideas. ) showline
(Nobody should put too much 'religion' into it.) showline
(        ) showline
() showline
(GROUP_DIR variable) showline
(------------------) showline
(As far as I remember, when we designed the HEPiX scripts with) showline
(Axel last year, we had no strong recommendations for a ) showline
(group hook level variable. ) showline
() showline
(                        Variable        Default value   ) showline
(        -----------------------------------------------------------) showline
(        CERN:           GROUP_DIR       /afs/cern.ch/group/$GROUP) showline
(        DESY Hamburg:   GROUPROOT       /etc/local/groups/$GROUP) showline
(        DESY Zeuthen:   no such variable) showline
(        IN2P3:          THRONG_DIR      ?) showline
() showline
(This is maybe a mistake but at this period the scripts were just starting) showline
(and we had not a single clue on the situation on the other sites) showline
(concerning the GROUP management.) showline
() showline
(So, as there is a site level in the HEPiX scripts, you can use it to) showline
(redefine anything and build your own calls. However I believe we should) showline
(normalise and standardise the name of the variable where are located) showline
(the 'group level' customisation file.) showline
() showline
(I wait for your input before opening a wider discussion.) showline
() showline
() showline
(Cheers) showline
(        ) showline
(PS: May I have a guest account at IN2P3. This will give me an) showline
(opportunity to have a better understanding on the situation) showline
(on your site\(s\).) showline
() showline
() showline
(------------------------------------------------------------) showline
(Arnaud Taddei                   tel : +41 22 767 93 49 ) showline
(CN Division 31 2-013            fax : +41 22 767 71 55) showline
(CERN                            mail: taddei@dxcern.cern.ch) showline
(CH-1211 Geneve 23) showline
(------------------------------------------------------------) showline
() showline
() showline
() showline
sf (4) 1 endcol
(4) endpage
%%Trailer
%%Pages: 4
