#FIG 3.1
Landscape
Center
Inches
1200 2
6 824 300 4724 825
2 4 0 2 0 7 0 0 -1 0.000 0 0 7 0 0 5
	 4650 751 4650 301 825 301 825 751 4650 751
4 0 0 0 0 2 20 0.0000000 4 255 3555 975 601 History of the HEPiX Project\001
-6
6 9195 4905 10545 5955
4 1 0 0 0 0 20 0.0000000 4 255 1275 9871 5131 Integration\001
4 1 0 0 0 0 20 0.0000000 4 165 225 9871 5527 at\001
4 1 0 0 0 0 20 0.0000000 4 195 780 9871 5923 CERN\001
-6
6 10500 4890 12000 5940
4 1 0 0 0 0 20 0.0000000 4 255 1395 11251 5116 Deployment\001
4 1 0 0 0 0 20 0.0000000 4 165 225 11251 5512 at\001
4 1 0 0 0 0 20 0.0000000 4 195 780 11251 5908 CERN\001
-6
6 12060 5100 12765 5751
4 1 0 0 0 0 20 0.0000000 4 195 480 12412 5295 X11\001
4 1 0 0 0 0 20 0.0000000 4 255 705 12412 5691 Specs.\001
-6
6 12990 5115 13710 5706
4 1 0 0 0 0 20 0.0000000 4 195 480 13350 5310 X11\001
4 1 0 0 0 0 20 0.0000000 4 195 720 13350 5706 Devel.\001
-6
6 2730 5175 4665 5766
4 1 0 0 0 0 20 0.0000000 4 255 1935 3697 5370 DESY Hamburg\001
4 1 0 0 0 0 20 0.0000000 4 195 1815 3697 5766 Initial Research\001
-6
6 5625 5175 7500 5850
4 1 0 0 0 0 20 0.0000000 4 195 1485 6586 5386 Dev. work at\001
4 1 0 0 0 0 20 0.0000000 4 195 1800 6586 5782 DESY Zeuthen\001
-6
6 8250 4950 9150 6000
4 1 0 0 0 0 20 0.0000000 4 195 765 8701 5176 DESY\001
4 1 0 0 0 0 20 0.0000000 4 105 150 8701 5572 +\001
4 1 0 0 0 0 20 0.0000000 4 195 780 8701 5968 CERN\001
-6
2 3 0 1 0 1 0 0 20 0.000 0 0 -1 0 0 6
	 1200 3600 19200 3600 19500 3900 19200 4200 1200 4200 1200 3600
2 1 0 3 0 1 0 0 20 0.000 0 0 -1 0 0 2
	 1500 3300 1500 4500
2 1 0 3 0 1 0 0 20 0.000 0 0 -1 0 0 2
	 11400 3300 11400 4500
2 1 0 3 0 1 0 0 20 0.000 0 0 -1 0 0 2
	 14700 3300 14700 4500
2 1 0 3 0 1 0 0 20 0.000 0 0 -1 0 0 2
	 4800 3300 4800 4500
2 1 0 3 0 1 0 0 20 0.000 0 0 -1 0 0 2
	 8100 3300 8100 4500
2 3 0 1 0 6 0 0 20 0.000 0 0 -1 0 0 6
	 2400 6600 17400 6600 17550 6750 17400 6900 2400 6900 2400 6600
2 1 2 1 0 4 0 0 20 1.000 0 0 -1 0 0 2
	 11400 1050 11400 2850
2 1 2 1 0 4 0 0 20 1.000 0 0 -1 0 0 2
	 14700 1050 14700 2850
2 1 2 1 0 4 0 0 20 1.000 0 0 -1 0 0 2
	 1500 1050 1500 2850
2 1 2 1 0 4 0 0 20 1.000 0 0 -1 0 0 2
	 8100 1050 8100 2850
2 1 0 1 0 4 0 0 -1 0.000 0 0 -1 1 0 3
	3 1 1.00 60.00 120.00
	 5175 1950 7425 1950 7875 3525
2 1 0 1 0 4 0 0 -1 0.000 0 0 -1 1 0 4
	3 1 1.00 60.00 120.00
	 11100 1575 8325 1575 8325 2025 9075 3525
2 1 0 1 0 4 0 0 -1 0.000 0 0 -1 1 0 3
	3 1 1.00 60.00 120.00
	 8775 1950 10125 1950 10575 3525
2 1 0 1 0 4 0 0 -1 0.000 0 0 -1 1 0 4
	3 1 1.00 60.00 120.00
	 14100 1575 11475 1575 11475 2025 11925 3525
2 1 0 1 0 4 0 0 -1 0.000 0 0 -1 1 0 4
	3 1 1.00 60.00 120.00
	 13650 1950 12000 1950 12000 2400 12825 3525
2 1 0 1 0 4 0 0 -1 0.000 0 0 -1 1 0 3
	3 1 1.00 60.00 120.00
	 12375 2325 13350 2325 13725 3525
2 1 2 1 0 4 0 0 -1 1.000 0 0 -1 0 0 2
	 9150 4575 9150 6150
2 1 2 1 0 4 0 0 -1 1.000 0 0 -1 0 0 2
	 10575 4575 10575 6150
2 1 2 1 0 4 0 0 -1 1.000 0 0 -1 0 0 2
	 11925 4575 11925 6150
2 1 2 1 0 4 0 0 -1 1.000 0 0 -1 0 0 2
	 12900 4575 12900 6150
2 1 2 1 0 4 0 0 -1 1.000 0 0 -1 0 0 2
	 13800 4575 13800 6150
2 1 2 1 0 4 0 0 -1 1.000 0 0 -1 0 0 2
	 2400 4650 2400 6225
2 1 2 1 0 4 0 0 -1 1.000 0 0 -1 0 0 2
	 5100 4650 5100 6225
2 1 2 1 0 4 0 0 -1 1.000 0 0 -1 0 0 2
	 8325 4575 8325 6150
2 1 0 1 0 4 0 0 -1 0.000 0 0 -1 1 0 4
	3 1 1.00 60.00 120.00
	 8025 1575 4875 1575 4875 2175 5250 3525
2 1 2 1 0 4 0 0 20 1.000 0 0 -1 0 0 2
	 4770 1050 4770 2850
2 1 0 1 0 4 0 0 -1 0.000 0 0 -1 1 0 3
	3 1 1.00 60.00 120.00
	 5625 2400 5850 2400 6150 3525
2 1 0 3 0 1 0 0 20 0.000 0 0 -1 0 0 2
	 18000 3300 18000 4500
2 1 2 1 0 4 0 0 -1 1.000 0 0 -1 0 0 2
	 14850 4575 14850 6150
2 1 2 1 0 4 0 0 20 1.000 0 0 -1 0 0 2
	 18000 1125 18000 2925
2 1 0 1 -1 7 0 0 -1 0.000 0 0 -1 1 0 4
	3 1 1.00 60.00 120.00
	 16725 1575 14850 1575 14850 1875 15375 3525
2 1 0 1 -1 7 0 0 -1 0.000 0 0 -1 1 0 3
	1 1 1.00 60.00 120.00
	 15225 1950 16800 1950 17025 3525
2 1 2 1 0 4 0 0 -1 1.000 0 0 -1 0 0 2
	 16200 4575 16200 6150
2 1 0 3 -1 7 0 0 -1 0.000 0 0 -1 0 0 2
	 16050 6225 16050 9075
2 1 0 1 -1 7 0 0 -1 0.000 0 0 -1 1 0 3
	3 1 1.00 60.00 120.00
	 15225 2325 16125 2325 16275 3450
2 1 0 1 -1 7 0 0 -1 0.000 0 0 -1 1 0 4
	3 1 1.00 60.00 120.00
	 16350 1200 14775 1200 14775 1950 15300 3525
2 3 0 1 0 4 1 0 20 0.000 0 0 -1 0 0 6
	 12000 8625 17400 8625 17625 8775 17400 8925 12000 8925 12000 8625
4 0 0 0 0 2 20 0.0000000 4 195 540 1275 3150 1992\001
4 0 0 0 0 2 20 0.0000000 4 195 540 4575 3150 1993\001
4 0 0 0 0 2 20 0.0000000 4 195 540 7875 3150 1994\001
4 0 0 0 0 2 20 0.0000000 4 195 540 11100 3150 1995\001
4 0 0 0 0 2 20 0.0000000 4 195 540 14400 3150 1996\001
4 0 0 0 0 0 20 0.0000000 4 255 2940 8250 1500 HEPiX Workshop CERN\001
4 0 0 0 0 0 20 0.0000000 4 255 2655 11475 1500 HEPiX-X11 Hamburg\001
4 0 0 0 0 0 20 0.0000000 4 255 1725 12000 1875 HEPiX Prague\001
4 0 0 0 0 0 20 0.0000000 4 255 1680 8775 1875 HEPiX Saclay\001
4 0 0 0 0 0 20 0.0000000 4 195 1095 12300 2250 CHEP 95\001
4 0 0 0 0 0 20 0.0000000 4 255 2835 5175 1875 HEPiX-Scripts Zeuthen\001
4 1 0 0 0 0 20 0.0000000 4 195 1095 6075 2325 CHEP 93\001
4 1 0 0 0 0 20 0.0000000 4 255 3390 6450 1500 1st HEPiX meeting at CERN\001
4 0 0 0 0 2 20 0.0000000 4 195 540 17700 3150 1997\001
4 1 0 0 0 0 20 0.0000000 4 195 480 14310 5310 X11\001
4 1 0 0 0 0 20 0.0000000 4 255 870 14310 5706 Deploy.\001
4 0 0 0 0 0 20 0.0000000 4 255 1935 14850 1500 HEPiX Triumph\001
4 0 0 0 0 0 20 0.0000000 4 195 1605 15225 1875 HEPiX Roma\001
4 1 0 0 0 0 20 0.0000000 4 195 480 15525 5325 X11\001
4 0 0 0 0 0 20 0.0000000 4 195 1605 17700 6825 HEPiX Shells\001
4 1 0 0 0 0 20 0.0000000 4 255 975 15525 5700 Optimis.\001
4 0 0 0 0 0 16 0.0000000 4 165 1665 15000 2250 L. Cons at SLAC\001
4 0 0 0 0 0 20 0.0000000 4 195 1395 17775 8850 HEPiX X11\001
4 0 -1 0 0 2 16 1.5707961 4 165 1590 15975 8550 HEPIX SPLIT\001
4 0 -1 0 0 0 12 0.0000000 4 135 1560 14850 1125 X status at CN DPG\001
