%!PS-Adobe-2.0
%%Title: hepix-history2.fig
%%Creator: fig2dev Version 3.1 Patchlevel 1
%%CreationDate: Thu Jun 27 15:41:09 1996
%%For: taddei@sp068 (Arnaud Taddei)
%%Orientation: Landscape
%%BoundingBox: 40 -165 571 958
%%Pages: 1
%%BeginSetup
%%IncludeFeature: *PageSize Letter
%%EndSetup
%%EndComments
/$F2psDict 200 dict def
$F2psDict begin
$F2psDict /mtrx matrix put
/col-1 {} def
/col0 {0.000 0.000 0.000 srgb} bind def
/col1 {0.000 0.000 1.000 srgb} bind def
/col2 {0.000 1.000 0.000 srgb} bind def
/col3 {0.000 1.000 1.000 srgb} bind def
/col4 {1.000 0.000 0.000 srgb} bind def
/col5 {1.000 0.000 1.000 srgb} bind def
/col6 {1.000 1.000 0.000 srgb} bind def
/col7 {1.000 1.000 1.000 srgb} bind def
/col8 {0.000 0.000 0.560 srgb} bind def
/col9 {0.000 0.000 0.690 srgb} bind def
/col10 {0.000 0.000 0.820 srgb} bind def
/col11 {0.530 0.810 1.000 srgb} bind def
/col12 {0.000 0.560 0.000 srgb} bind def
/col13 {0.000 0.690 0.000 srgb} bind def
/col14 {0.000 0.820 0.000 srgb} bind def
/col15 {0.000 0.560 0.560 srgb} bind def
/col16 {0.000 0.690 0.690 srgb} bind def
/col17 {0.000 0.820 0.820 srgb} bind def
/col18 {0.560 0.000 0.000 srgb} bind def
/col19 {0.690 0.000 0.000 srgb} bind def
/col20 {0.820 0.000 0.000 srgb} bind def
/col21 {0.560 0.000 0.560 srgb} bind def
/col22 {0.690 0.000 0.690 srgb} bind def
/col23 {0.820 0.000 0.820 srgb} bind def
/col24 {0.500 0.190 0.000 srgb} bind def
/col25 {0.630 0.250 0.000 srgb} bind def
/col26 {0.750 0.380 0.000 srgb} bind def
/col27 {1.000 0.500 0.500 srgb} bind def
/col28 {1.000 0.630 0.630 srgb} bind def
/col29 {1.000 0.750 0.750 srgb} bind def
/col30 {1.000 0.880 0.880 srgb} bind def
/col31 {1.000 0.840 0.000 srgb} bind def

end
save
24.5 -213.5 translate
 90 rotate
1 -1 scale

/clp {closepath} bind def
/ef {eofill} bind def
/gr {grestore} bind def
/gs {gsave} bind def
/l {lineto} bind def
/m {moveto} bind def
/n {newpath} bind def
/s {stroke} bind def
/slc {setlinecap} bind def
/slj {setlinejoin} bind def
/slw {setlinewidth} bind def
/srgb {setrgbcolor} bind def
/rot {rotate} bind def
/sc {scale} bind def
/tr {translate} bind def
/tnt {dup dup currentrgbcolor
  4 -2 roll dup 1 exch sub 3 -1 roll mul add
  4 -2 roll dup 1 exch sub 3 -1 roll mul add
  4 -2 roll dup 1 exch sub 3 -1 roll mul add srgb}
  bind def
/shd {dup dup currentrgbcolor 4 -2 roll mul 4 -2 roll mul
  4 -2 roll mul srgb} bind def
/$F2psBegin {$F2psDict begin /$F2psEnteredState save def} def
/$F2psEnd {$F2psEnteredState restore end} def
%%EndProlog

$F2psBegin
10 setmiterlimit
 0.06000 0.06000 sc
7.500 slw
% Polyline
n 12000 8625 m 17400 8625 l  17625 8775 l  17400 8925 l  12000 8925 l  clp gs col4 1.00 shd ef gr  gs col0 s gr 
/Times-Roman findfont 300.00 scalefont setfont
9871 5131 m
gs 1 -1 sc (Integration) dup stringwidth pop 2 div neg 0 rmoveto  col0 show gr
/Times-Roman findfont 300.00 scalefont setfont
9871 5527 m
gs 1 -1 sc (at) dup stringwidth pop 2 div neg 0 rmoveto  col0 show gr
/Times-Roman findfont 300.00 scalefont setfont
9871 5923 m
gs 1 -1 sc (CERN) dup stringwidth pop 2 div neg 0 rmoveto  col0 show gr
/Times-Roman findfont 300.00 scalefont setfont
11251 5116 m
gs 1 -1 sc (Deployment) dup stringwidth pop 2 div neg 0 rmoveto  col0 show gr
/Times-Roman findfont 300.00 scalefont setfont
11251 5512 m
gs 1 -1 sc (at) dup stringwidth pop 2 div neg 0 rmoveto  col0 show gr
/Times-Roman findfont 300.00 scalefont setfont
11251 5908 m
gs 1 -1 sc (CERN) dup stringwidth pop 2 div neg 0 rmoveto  col0 show gr
/Times-Roman findfont 300.00 scalefont setfont
12412 5295 m
gs 1 -1 sc (X11) dup stringwidth pop 2 div neg 0 rmoveto  col0 show gr
/Times-Roman findfont 300.00 scalefont setfont
12412 5691 m
gs 1 -1 sc (Specs.) dup stringwidth pop 2 div neg 0 rmoveto  col0 show gr
/Times-Roman findfont 300.00 scalefont setfont
13350 5310 m
gs 1 -1 sc (X11) dup stringwidth pop 2 div neg 0 rmoveto  col0 show gr
/Times-Roman findfont 300.00 scalefont setfont
13350 5706 m
gs 1 -1 sc (Devel.) dup stringwidth pop 2 div neg 0 rmoveto  col0 show gr
/Times-Roman findfont 300.00 scalefont setfont
3697 5370 m
gs 1 -1 sc (DESY Hamburg) dup stringwidth pop 2 div neg 0 rmoveto  col0 show gr
/Times-Roman findfont 300.00 scalefont setfont
3697 5766 m
gs 1 -1 sc (Initial Research) dup stringwidth pop 2 div neg 0 rmoveto  col0 show gr
/Times-Roman findfont 300.00 scalefont setfont
6586 5386 m
gs 1 -1 sc (Dev. work at) dup stringwidth pop 2 div neg 0 rmoveto  col0 show gr
/Times-Roman findfont 300.00 scalefont setfont
6586 5782 m
gs 1 -1 sc (DESY Zeuthen) dup stringwidth pop 2 div neg 0 rmoveto  col0 show gr
/Times-Roman findfont 300.00 scalefont setfont
8701 5176 m
gs 1 -1 sc (DESY) dup stringwidth pop 2 div neg 0 rmoveto  col0 show gr
/Times-Roman findfont 300.00 scalefont setfont
8701 5572 m
gs 1 -1 sc (+) dup stringwidth pop 2 div neg 0 rmoveto  col0 show gr
/Times-Roman findfont 300.00 scalefont setfont
8701 5968 m
gs 1 -1 sc (CERN) dup stringwidth pop 2 div neg 0 rmoveto  col0 show gr
% Polyline
n 1200 3600 m 19200 3600 l  19500 3900 l  19200 4200 l  1200 4200 l  clp gs col1 1.00 shd ef gr  gs col0 s gr 
30.000 slw
% Polyline
n 1500 3300 m 1500 4500 l gs col1 1.00 shd ef gr  gs col0 s gr 
% Polyline
n 11400 3300 m 11400 4500 l gs col1 1.00 shd ef gr  gs col0 s gr 
% Polyline
n 14700 3300 m 14700 4500 l gs col1 1.00 shd ef gr  gs col0 s gr 
% Polyline
n 4800 3300 m 4800 4500 l gs col1 1.00 shd ef gr  gs col0 s gr 
% Polyline
n 8100 3300 m 8100 4500 l gs col1 1.00 shd ef gr  gs col0 s gr 
7.500 slw
% Polyline
n 2400 6600 m 17400 6600 l  17550 6750 l  17400 6900 l  2400 6900 l  clp gs col6 1.00 shd ef gr  gs col0 s gr 
% Polyline
	[1 16.7] 16.666667 setdash
n 11400 1050 m 11400 2850 l gs col4 1.00 shd ef gr  gs col0 s gr 	[] 0 setdash
% Polyline
	[1 16.7] 16.666667 setdash
n 14700 1050 m 14700 2850 l gs col4 1.00 shd ef gr  gs col0 s gr 	[] 0 setdash
% Polyline
	[1 16.7] 16.666667 setdash
n 1500 1050 m 1500 2850 l gs col4 1.00 shd ef gr  gs col0 s gr 	[] 0 setdash
% Polyline
	[1 16.7] 16.666667 setdash
n 8100 1050 m 8100 2850 l gs col4 1.00 shd ef gr  gs col0 s gr 	[] 0 setdash
% Polyline
n 5175 1950 m 7425 1950 l  7875 3525 l  gs col0 s gr 
n 7877.47 3424.45 m 7875.00 3525.00 l 7819.78 3440.94 l  7842.53 3410.12 l 7877.47 3424.45 l clp gs 0.00 setgray ef gr gs col0 s gr
% Polyline
n 11100 1575 m 8325 1575 l  8325 2025 l  9075 3525 l  gs col0 s gr 
n 9058.90 3425.72 m 9075.00 3525.00 l 9005.23 3452.55 l  9021.83 3418.17 l 9058.90 3425.72 l clp gs 0.00 setgray ef gr gs col0 s gr
% Polyline
n 8775 1950 m 10125 1950 l  10575 3525 l  gs col0 s gr 
n 10577.47 3424.45 m 10575.00 3525.00 l 10519.78 3440.94 l  10542.53 3410.12 l 10577.47 3424.45 l clp gs 0.00 setgray ef gr gs col0 s gr
% Polyline
n 14100 1575 m 11475 1575 l  11475 2025 l  11925 3525 l  gs col0 s gr 
n 11926.15 3424.43 m 11925.00 3525.00 l 11868.68 3441.67 l  11891.02 3410.56 l 11926.15 3424.43 l clp gs 0.00 setgray ef gr gs col0 s gr
% Polyline
n 13650 1950 m 12000 1950 l  12000 2400 l  12825 3525 l  gs col0 s gr 
n 12792.42 3429.84 m 12825.00 3525.00 l 12744.04 3465.33 l  12754.54 3428.73 l 12792.42 3429.84 l clp gs 0.00 setgray ef gr gs col0 s gr
% Polyline
n 12375 2325 m 13350 2325 l  13725 3525 l  gs col0 s gr 
n 13725.00 3424.42 m 13725.00 3525.00 l 13667.73 3442.32 l  13689.71 3410.96 l 13725.00 3424.42 l clp gs 0.00 setgray ef gr gs col0 s gr
% Polyline
	[1 16.7] 16.666667 setdash
n 9150 4575 m 9150 6150 l  gs col0 s gr 	[] 0 setdash
% Polyline
	[1 16.7] 16.666667 setdash
n 10575 4575 m 10575 6150 l  gs col0 s gr 	[] 0 setdash
% Polyline
	[1 16.7] 16.666667 setdash
n 11925 4575 m 11925 6150 l  gs col0 s gr 	[] 0 setdash
% Polyline
	[1 16.7] 16.666667 setdash
n 12900 4575 m 12900 6150 l  gs col0 s gr 	[] 0 setdash
% Polyline
	[1 16.7] 16.666667 setdash
n 13800 4575 m 13800 6150 l  gs col0 s gr 	[] 0 setdash
15.000 slw
% Polyline
n 930 301 m 825 301 825 646 105 arcto 4 {pop} repeat 825 751 4545 751 105 arcto 4 {pop} repeat 4650 751 4650 406 105 arcto 4 {pop} repeat 4650 301 930 301 105 arcto 4 {pop} repeat clp  gs col0 s gr 
7.500 slw
% Polyline
	[1 16.7] 16.666667 setdash
n 2400 4650 m 2400 6225 l  gs col0 s gr 	[] 0 setdash
/Times-Roman findfont 180.00 scalefont setfont
14850 1125 m
gs 1 -1 sc (X status at CN DPG) col-1 show gr
% Polyline
	[1 16.7] 16.666667 setdash
n 5100 4650 m 5100 6225 l  gs col0 s gr 	[] 0 setdash
% Polyline
	[1 16.7] 16.666667 setdash
n 8325 4575 m 8325 6150 l  gs col0 s gr 	[] 0 setdash
% Polyline
n 8025 1575 m 4875 1575 l  4875 2175 l  5250 3525 l  gs col0 s gr 
n 5253.21 3424.47 m 5250.00 3525.00 l 5195.40 3440.53 l  5218.38 3409.88 l 5253.21 3424.47 l clp gs 0.00 setgray ef gr gs col0 s gr
% Polyline
	[1 16.7] 16.666667 setdash
n 4770 1050 m 4770 2850 l gs col4 1.00 shd ef gr  gs col0 s gr 	[] 0 setdash
% Polyline
n 5625 2400 m 5850 2400 l  6150 3525 l  gs col0 s gr 
n 6154.25 3424.51 m 6150.00 3525.00 l 6096.28 3439.97 l  6119.58 3409.55 l 6154.25 3424.51 l clp gs 0.00 setgray ef gr gs col0 s gr
30.000 slw
% Polyline
n 18000 3300 m 18000 4500 l gs col1 1.00 shd ef gr  gs col0 s gr 
7.500 slw
% Polyline
	[1 16.7] 16.666667 setdash
n 14850 4575 m 14850 6150 l  gs col0 s gr 	[] 0 setdash
% Polyline
	[1 16.7] 16.666667 setdash
n 18000 1125 m 18000 2925 l gs col4 1.00 shd ef gr  gs col0 s gr 	[] 0 setdash
% Polyline
n 16725 1575 m 14850 1575 l  14850 1875 l  15375 3525 l  gs col-1 s gr 
n 15374.48 3424.42 m 15375.00 3525.00 l 15317.30 3442.62 l  15339.12 3411.15 l 15374.48 3424.42 l clp gs 0.00 setgray ef gr gs col-1 s gr
% Polyline
n 15225 1950 m 16800 1950 l  17025 3525 l  gs col-1 s gr 
n 17037.73 3401.96 m 17025.00 3525.00 l 16978.33 3410.45 l  17008.53 3406.71 l 17037.73 3401.96 l clp gs 0.00 setgray ef gr gs col-1 s gr
% Polyline
	[1 16.7] 16.666667 setdash
n 16200 4575 m 16200 6150 l  gs col0 s gr 	[] 0 setdash
30.000 slw
% Polyline
n 16050 6225 m 16050 9075 l  gs col-1 s gr 
7.500 slw
% Polyline
n 15225 2325 m 16125 2325 l  16275 3450 l  gs col-1 s gr 
n 16292.05 3350.88 m 16275.00 3450.00 l 16232.58 3358.81 l  16259.64 3331.55 l 16292.05 3350.88 l clp gs 0.00 setgray ef gr gs col-1 s gr
% Polyline
n 16350 1200 m 14775 1200 l  14775 1950 l  15300 3525 l  gs col-1 s gr 
n 15298.10 3424.44 m 15300.00 3525.00 l 15241.18 3443.41 l  15262.55 3411.66 l 15298.10 3424.44 l clp gs 0.00 setgray ef gr gs col-1 s gr
/Times-Bold findfont 300.00 scalefont setfont
975 601 m
gs 1 -1 sc (History of the HEPiX Project) col0 show gr
/Times-Bold findfont 300.00 scalefont setfont
1275 3150 m
gs 1 -1 sc (1992) col0 show gr
/Times-Bold findfont 300.00 scalefont setfont
4575 3150 m
gs 1 -1 sc (1993) col0 show gr
/Times-Bold findfont 300.00 scalefont setfont
7875 3150 m
gs 1 -1 sc (1994) col0 show gr
/Times-Bold findfont 300.00 scalefont setfont
11100 3150 m
gs 1 -1 sc (1995) col0 show gr
/Times-Bold findfont 300.00 scalefont setfont
14400 3150 m
gs 1 -1 sc (1996) col0 show gr
/Times-Roman findfont 300.00 scalefont setfont
8250 1500 m
gs 1 -1 sc (HEPiX Workshop CERN) col0 show gr
/Times-Roman findfont 300.00 scalefont setfont
11475 1500 m
gs 1 -1 sc (HEPiX-X11 Hamburg) col0 show gr
/Times-Roman findfont 300.00 scalefont setfont
12000 1875 m
gs 1 -1 sc (HEPiX Prague) col0 show gr
/Times-Roman findfont 300.00 scalefont setfont
8775 1875 m
gs 1 -1 sc (HEPiX Saclay) col0 show gr
/Times-Roman findfont 300.00 scalefont setfont
12300 2250 m
gs 1 -1 sc (CHEP 95) col0 show gr
/Times-Roman findfont 300.00 scalefont setfont
5175 1875 m
gs 1 -1 sc (HEPiX-Scripts Zeuthen) col0 show gr
/Times-Roman findfont 300.00 scalefont setfont
6075 2325 m
gs 1 -1 sc (CHEP 93) dup stringwidth pop 2 div neg 0 rmoveto  col0 show gr
/Times-Roman findfont 300.00 scalefont setfont
6450 1500 m
gs 1 -1 sc (1st HEPiX meeting at CERN) dup stringwidth pop 2 div neg 0 rmoveto  col0 show gr
/Times-Bold findfont 300.00 scalefont setfont
17700 3150 m
gs 1 -1 sc (1997) col0 show gr
/Times-Roman findfont 300.00 scalefont setfont
14310 5310 m
gs 1 -1 sc (X11) dup stringwidth pop 2 div neg 0 rmoveto  col0 show gr
/Times-Roman findfont 300.00 scalefont setfont
14310 5706 m
gs 1 -1 sc (Deploy.) dup stringwidth pop 2 div neg 0 rmoveto  col0 show gr
/Times-Roman findfont 300.00 scalefont setfont
14850 1500 m
gs 1 -1 sc (HEPiX Triumph) col0 show gr
/Times-Roman findfont 300.00 scalefont setfont
15225 1875 m
gs 1 -1 sc (HEPiX Roma) col0 show gr
/Times-Roman findfont 300.00 scalefont setfont
15525 5325 m
gs 1 -1 sc (X11) dup stringwidth pop 2 div neg 0 rmoveto  col0 show gr
/Times-Roman findfont 300.00 scalefont setfont
17700 6825 m
gs 1 -1 sc (HEPiX Shells) col0 show gr
/Times-Roman findfont 300.00 scalefont setfont
15525 5700 m
gs 1 -1 sc (Optimis.) dup stringwidth pop 2 div neg 0 rmoveto  col0 show gr
/Times-Roman findfont 240.00 scalefont setfont
15000 2250 m
gs 1 -1 sc (L. Cons at SLAC) col0 show gr
/Times-Roman findfont 300.00 scalefont setfont
17775 8850 m
gs 1 -1 sc (HEPiX X11) col0 show gr
/Times-Bold findfont 240.00 scalefont setfont
15975 8550 m
gs 1 -1 sc  90.0 rot (HEPIX SPLIT) col-1 show gr
showpage
%%Page: 1 1
$F2psEnd
restore
