#FIG 3.1
Landscape
Center
Inches
1200 2
6 5475 4290 5751 4566
1 3 0 1 -1 7 0 0 -1 0.0000000 1 0.000 5613 4428 138 138 5613 4428 5718 4518
4 0 -1 0 0 2 16 0.0000000 4 165 120 5568 4533 2\001
-6
6 5475 3585 5751 3861
1 3 0 1 -1 7 0 0 -1 0.0000000 1 0.000 5613 3723 138 138 5613 3723 5718 3813
4 0 -1 0 0 2 16 0.0000000 4 165 120 5568 3813 1\001
-6
6 3645 4935 3921 5211
1 3 0 1 -1 7 0 0 -1 0.0000000 1 0.000 3783 5073 138 138 3783 5073 3888 5163
4 0 -1 0 0 2 16 0.0000000 4 165 120 3736 5174 3\001
-6
6 5385 4935 5661 5211
1 3 0 1 -1 7 0 0 -1 0.0000000 1 0.000 5523 5073 138 138 5523 5073 5628 5163
4 0 -1 0 0 2 16 0.0000000 4 165 120 5478 5163 4\001
-6
6 7335 4950 7611 5226
1 3 0 1 -1 7 0 0 -1 0.0000000 1 0.000 7473 5088 138 138 7473 5088 7578 5178
4 0 -1 0 0 2 16 0.0000000 4 165 120 7428 5178 5\001
-6
6 5520 5835 5796 6111
1 3 0 1 -1 7 0 0 -1 0.0000000 1 0.000 5658 5973 138 138 5658 5973 5763 6063
4 0 -1 0 0 2 16 0.0000000 4 165 120 5598 6063 6\001
-6
2 4 0 1 -1 11 0 0 20 0.000 0 0 7 0 0 5
	 6600 3900 5850 3900 5850 3600 6600 3600 6600 3900
2 4 0 1 -1 11 0 0 20 0.000 0 0 7 0 0 5
	 6600 4575 5850 4575 5850 4275 6600 4275 6600 4575
2 4 0 1 0 11 0 0 20 0.000 0 0 7 0 0 5
	 5100 5250 3975 5250 3975 4950 5100 4950 5100 5250
2 4 0 1 -1 11 0 0 20 0.000 0 0 7 0 0 5
	 7050 5250 5700 5250 5700 4950 7050 4950 7050 5250
2 4 0 1 -1 11 0 0 20 0.000 0 0 7 0 0 5
	 8700 5250 7650 5250 7650 4950 8700 4950 8700 5250
2 4 0 1 -1 11 0 0 20 0.000 0 0 7 0 0 5
	 6750 6150 5850 6150 5850 5850 6750 5850 6750 6150
2 1 0 1 -1 26 0 0 20 0.000 0 0 -1 1 0 2
	1 1 1.00 60.00 120.00
	 5025 3000 5850 3525
2 1 0 1 -1 26 0 0 20 0.000 0 0 -1 1 0 2
	1 1 1.00 60.00 120.00
	 7497 2995 6672 3520
2 1 0 1 -1 26 0 0 20 0.000 0 0 -1 1 0 2
	1 1 1.00 60.00 120.00
	 6225 3975 6225 4200
2 1 0 1 -1 26 0 0 20 0.000 0 0 -1 1 0 2
	1 1 1.00 60.00 120.00
	 6225 4650 6225 4950
2 1 0 1 -1 26 0 0 20 0.000 0 0 -1 1 0 2
	1 1 1.00 60.00 120.00
	 5775 4575 5100 4950
2 1 0 1 -1 26 0 0 20 0.000 0 0 -1 1 0 2
	1 1 1.00 60.00 120.00
	 6750 4500 7425 4875
2 1 0 1 -1 26 0 0 20 0.000 0 0 -1 1 0 2
	1 1 1.00 60.00 120.00
	 10725 2925 9150 2925
2 1 0 1 -1 26 0 0 20 0.000 0 0 -1 1 0 3
	1 1 1.00 60.00 120.00
	 10800 6000 6975 6000 6900 6000
2 1 0 1 -1 26 0 0 20 0.000 0 0 -1 1 0 2
	1 1 1.00 60.00 120.00
	 2250 6000 5325 6000
2 1 0 1 -1 26 0 0 20 0.000 0 0 -1 1 0 2
	1 1 1.00 60.00 120.00
	 9075 3075 9900 3600
2 4 0 1 -1 17 0 0 30 0.000 0 0 7 0 0 5
	 3600 2251 2145 2251 2145 1876 3600 1876 3600 2251
2 4 0 1 -1 17 0 0 30 0.000 0 0 7 0 0 5
	 10726 2191 8956 2191 8956 1831 10726 1831 10726 2191
2 4 0 1 -1 3 0 0 20 0.000 0 0 7 0 0 5
	 4950 3075 3450 3075 3450 2775 4950 2775 4950 3075
2 4 0 1 -1 3 0 0 20 0.000 0 0 7 0 0 5
	 8925 3075 7650 3075 7650 2775 8925 2775 8925 3075
2 4 0 1 0 6 0 0 20 0.000 0 0 7 0 0 5
	 10951 4501 9826 4501 9826 3751 10951 3751 10951 4501
3 2 0 1 -1 0 0 0 -1 0.000 0 1 0 9
	1 1 1.00 60.00 120.00
	 5325 5925 3000 5775 2550 5475 2100 4650 2100 3825 2325 3075
	 2625 3000 3000 3000 3375 3000
	 0.00 0.00 3989.35 5950.56 3408.10 5913.06 2873.69 5732.27
	 2639.01 5572.28 2395.33 5305.97 2156.86 4872.98 2050.09 4454.25
	 2072.01 4015.71 2126.57 3643.99 2155.23 3237.06 2392.05 3011.00
	 2553.82 3008.76 2711.32 2989.37 2914.57 3000.00 3064.07 3000.00
	 3157.82 3000.00 0.00 0.00
4 0 -1 0 0 2 16 0.0000000 4 165 525 6000 3825 HEP\001
4 0 -1 0 0 2 16 0.0000000 4 165 585 6000 4500 SITE\001
4 0 -1 0 0 2 16 0.0000000 4 165 1020 4050 5175 SYSTEM\001
4 0 -1 0 0 2 16 0.0000000 4 165 1125 5775 5175 CLUSTER\001
4 0 -1 0 0 2 16 0.0000000 4 165 825 7725 5175 GROUP\001
4 0 -1 0 0 2 16 0.0000000 4 165 645 5970 6060 USER\001
4 0 -1 0 0 2 16 0.0000000 4 165 1380 3510 3000 Central files\001
4 0 -1 0 0 2 16 0.0000000 4 225 1080 7800 3000 Wrappers\001
4 0 -1 0 0 0 20 0.0000000 4 255 1200 7650 3300 (root, etc.)\001
4 0 -1 0 0 2 16 0.0000000 4 165 1290 2250 2176 Weak Mode\001
4 0 -1 0 0 2 16 0.0000000 4 165 1620 9076 2101 Enforced mode\001
4 0 -1 0 0 0 20 0.0000000 4 195 930 9976 4051 Vendor \001
4 0 -1 0 0 0 20 0.0000000 4 195 540 10126 4351 Files\001
