#FIG 3.1
Landscape
Center
Inches
1200 2
6 1649 224 11924 2399
6 10127 377 11327 917
2 4 0 1 0 31 0 0 20 0.000 0 0 7 0 0 5
	 11327 917 11327 377 10127 377 10127 917 11327 917
4 1 0 0 0 0 20 0.0000000 4 195 540 10712 737 Host\001
-6
6 5327 377 6752 1202
2 4 0 1 0 11 0 0 20 0.000 0 0 7 0 0 5
	 6752 1202 6752 377 5327 377 5327 1202 6752 1202
4 1 0 0 0 0 20 0.0000000 4 195 1035 6047 857 X Server\001
-6
2 4 0 1 0 3 1 0 31 0.000 0 0 7 0 0 5
	 11850 2325 1650 2325 1650 225 11850 225 11850 2325
2 1 0 1 0 31 0 0 -1 0.000 0 0 -1 1 0 2
	3 1 1.00 60.00 120.00
	 6752 677 10127 677
2 1 0 1 0 31 0 0 -1 0.000 0 0 -1 1 0 3
	3 1 1.00 60.00 120.00
	 10727 902 10727 1877 9452 1877
2 1 0 1 0 31 0 0 -1 0.000 0 0 -1 1 0 4
	3 1 1.00 60.00 120.00
	 7727 1877 7127 1877 7127 827 6752 827
2 4 0 1 0 31 0 0 -1 0.000 0 0 7 0 0 5
	 4201 901 4201 526 2101 526 2101 901 4201 901
2 4 0 1 0 28 1 0 20 0.000 0 0 7 0 0 5
	 9467 2162 7727 2162 7727 1577 9467 1577 9467 2162
4 1 0 0 0 0 20 0.0000000 4 255 2625 8627 602 Direct XDMCP Query\001
4 1 0 0 0 2 20 0.0000000 4 195 1905 3151 826 XDMCP Direct\001
4 1 0 0 0 0 20 0.0000000 4 255 1425 8612 1967 XDM Login\001
-6
6 12528 3183 13728 3723
2 4 0 1 0 31 0 0 20 0.000 0 0 7 0 0 5
	 13728 3723 13728 3183 12528 3183 12528 3723 13728 3723
4 1 0 0 0 0 20 0.0000000 4 195 750 13143 3558 Host 2\001
-6
6 10083 3228 11283 3768
2 4 0 1 0 31 0 0 20 0.000 0 0 7 0 0 5
	 11283 3768 11283 3228 10083 3228 10083 3768 11283 3768
4 1 0 0 0 0 20 0.0000000 4 195 750 10668 3588 Host 1\001
-6
6 5328 3228 6753 4053
2 4 0 1 0 11 0 0 20 0.000 0 0 7 0 0 5
	 6753 4053 6753 3228 5328 3228 5328 4053 6753 4053
4 1 0 0 0 0 20 0.0000000 4 195 1035 6048 3708 X Server\001
-6
6 2102 3377 4502 3827
2 4 0 1 0 31 0 0 -1 0.000 0 0 7 0 0 5
	 4428 3753 4428 3378 2103 3378 2103 3753 4428 3753
4 1 0 0 0 2 20 0.0000000 4 195 2115 3228 3678 XDMCP Indirect\001
-6
6 10127 6302 11327 6842
2 4 0 1 0 31 0 0 20 0.000 0 0 7 0 0 5
	 11327 6842 11327 6302 10127 6302 10127 6842 11327 6842
4 1 0 0 0 0 20 0.0000000 4 195 750 10712 6662 Host 1\001
-6
6 10127 7652 11327 8192
2 4 0 1 0 31 0 0 20 0.000 0 0 7 0 0 5
	 11327 8192 11327 7652 10127 7652 10127 8192 11327 8192
4 1 0 0 0 0 20 0.0000000 4 195 750 10727 8012 Host 3\001
-6
6 10127 6977 11327 7517
2 4 0 1 0 31 0 0 20 0.000 0 0 7 0 0 5
	 11327 7517 11327 6977 10127 6977 10127 7517 11327 7517
4 1 0 0 0 0 20 0.0000000 4 195 750 10742 7352 Host 2\001
-6
6 5282 6902 6707 7727
2 4 0 1 0 11 0 0 20 0.000 0 0 7 0 0 5
	 6707 7727 6707 6902 5282 6902 5282 7727 6707 7727
4 1 0 0 0 0 20 0.0000000 4 195 1035 6002 7382 X Server\001
-6
6 1649 9899 11624 14474
6 5250 10800 6675 11625
2 4 0 1 0 11 0 0 20 0.000 0 0 7 0 0 5
	 6675 11625 6675 10800 5250 10800 5250 11625 6675 11625
4 1 0 0 0 0 20 0.0000000 4 195 1035 5970 11280 X Server\001
-6
6 10125 10800 11325 11340
2 4 0 1 0 31 0 0 20 0.000 0 0 7 0 0 5
	 11325 11340 11325 10800 10125 10800 10125 11340 11325 11340
4 1 0 0 0 0 20 0.0000000 4 195 750 10740 11175 Host 2\001
-6
6 10125 10125 11325 10665
2 4 0 1 0 31 0 0 20 0.000 0 0 7 0 0 5
	 11325 10665 11325 10125 10125 10125 10125 10665 11325 10665
4 1 0 0 0 0 20 0.0000000 4 195 750 10710 10485 Host 1\001
-6
6 10125 11475 11325 12015
2 4 0 1 0 31 0 0 20 0.000 0 0 7 0 0 5
	 11325 12015 11325 11475 10125 11475 10125 12015 11325 12015
4 1 0 0 0 0 20 0.0000000 4 195 750 10725 11835 Host 3\001
-6
6 7725 12525 9600 14325
6 8251 13126 8851 14176
4 0 -1 0 0 0 16 0.0000000 4 165 540 8252 13352 host1\001
4 0 -1 0 0 0 16 0.0000000 4 165 540 8252 13730 host2\001
4 0 -1 0 0 0 16 0.0000000 4 165 540 8252 14108 host3\001
-6
2 4 0 1 -1 28 1 0 20 0.000 0 0 8 0 0 5
	 9527 14251 7727 14251 7727 12527 9527 12527 9527 14251
2 1 0 1 -1 28 0 0 20 0.000 0 0 -1 0 0 2
	 7726 12976 9526 12976
4 0 -1 0 0 0 20 0.0000000 4 195 945 8102 12902 Chooser\001
-6
2 1 0 1 -1 28 0 0 20 0.000 0 0 -1 1 0 2
	3 1 1.00 60.00 120.00
	 6675 11100 10125 11100
2 1 0 1 -1 28 0 0 20 0.000 0 0 -1 1 0 2
	3 1 1.00 60.00 120.00
	 6675 11100 10125 11700
2 1 0 1 -1 28 0 0 -1 0.000 0 0 -1 1 0 3
	3 1 1.00 60.00 120.00
	 10725 12000 10725 12750 9525 12750
2 1 0 1 -1 28 0 0 -1 0.000 0 0 -1 1 0 4
	3 1 1.00 60.00 120.00
	 7725 12750 7125 12750 7125 11250 6675 11250
2 1 0 1 -1 28 0 0 20 0.000 0 0 -1 1 0 2
	3 1 1.00 60.00 120.00
	 6682 11134 10132 10384
2 4 0 1 -1 3 2 0 31 0.000 0 0 7 0 0 5
	 11550 14400 1650 14400 1650 9900 11550 9900 11550 14400
4 1 0 0 0 0 20 0.0000000 4 255 3060 8475 10725 Broadcast XDMCP Query\001
-6
6 1650 15150 11625 18900
6 5251 15526 6676 16351
2 4 0 1 0 11 0 0 20 0.000 0 0 7 0 0 5
	 6676 16351 6676 15526 5251 15526 5251 16351 6676 16351
4 1 0 0 0 0 20 0.0000000 4 195 1035 5971 16006 X Server\001
-6
6 10126 15526 11326 16066
2 4 0 1 0 31 0 0 20 0.000 0 0 7 0 0 5
	 11326 16066 11326 15526 10126 15526 10126 16066 11326 16066
4 1 0 0 0 0 20 0.0000000 4 195 750 10711 15886 Host 1\001
-6
6 7726 16726 9601 18526
6 8252 17327 8927 18377
4 0 -1 0 0 0 16 0.0000000 4 165 540 8253 17553 host1\001
4 0 -1 0 0 0 16 0.0000000 4 165 570 8253 18309 hostB\001
4 0 -1 0 0 0 16 0.0000000 4 165 600 8253 17931 hostA\001
-6
2 4 0 1 -1 28 1 0 20 0.000 0 0 8 0 0 5
	 9529 18453 7729 18453 7729 16729 9529 16729 9529 18453
2 1 0 1 -1 28 0 0 20 0.000 0 0 -1 0 0 2
	 7728 17178 9528 17178
4 0 -1 0 0 0 20 0.0000000 4 195 945 8104 17104 Chooser\001
-6
2 1 0 1 -1 28 0 0 -1 0.000 0 0 -1 1 0 2
	3 1 1.00 60.00 120.00
	 6676 15826 10126 15826
2 1 0 1 -1 28 0 0 -1 0.000 0 0 -1 1 0 3
	3 1 1.00 60.00 120.00
	 10726 16051 10726 16951 9526 16951
2 1 0 1 -1 28 0 0 -1 0.000 0 0 -1 1 0 4
	3 1 1.00 60.00 120.00
	 7726 16951 7126 16951 7126 15976 6676 15976
2 4 0 1 -1 3 2 0 31 0.000 0 0 7 0 0 5
	 11551 18826 1651 18826 1651 15151 11551 15151 11551 18826
4 1 0 0 0 0 20 0.0000000 4 255 2790 8476 15676 Indirect XDMCP Query\001
-6
2 4 0 1 0 3 1 0 31 0.000 0 0 7 0 0 5
	 14026 5326 1651 5326 1651 2926 14026 2926 14026 5326
2 1 0 1 0 31 0 0 -1 0.000 0 0 -1 1 0 2
	3 1 1.00 60.00 120.00
	 6753 3528 10053 3528
2 1 0 1 0 31 0 0 -1 0.000 0 0 -1 1 0 2
	3 1 1.00 60.00 120.00
	 11328 3528 12528 3528
2 1 0 1 0 31 0 0 -1 0.000 0 0 -1 1 0 3
	3 1 1.00 60.00 120.00
	 13128 3753 13128 4728 9453 4728
2 1 0 1 0 31 0 0 -1 0.000 0 0 -1 1 0 4
	3 1 1.00 60.00 120.00
	 7728 4728 7128 4728 7128 3678 6753 3678
2 4 0 1 0 28 0 0 20 0.000 0 0 7 0 0 5
	 9468 5013 7728 5013 7728 4428 9468 4428 9468 5013
2 1 0 1 0 31 0 0 -1 0.000 0 0 -1 1 0 2
	3 1 1.00 60.00 120.00
	 6677 7202 10127 6527
2 1 0 1 0 31 0 0 -1 0.000 0 0 -1 1 0 2
	3 1 1.00 60.00 120.00
	 6677 7202 10127 7202
2 1 0 1 0 31 0 0 -1 0.000 0 0 -1 1 0 2
	3 1 1.00 60.00 120.00
	 6752 7202 10127 7877
2 1 0 1 0 31 0 0 -1 0.000 0 0 -1 1 0 3
	3 1 1.00 60.00 120.00
	 10727 8177 10727 9002 9452 9002
2 1 0 1 0 31 0 0 -1 0.000 0 0 -1 1 0 4
	3 1 1.00 60.00 120.00
	 7727 9002 7127 9002 7127 7352 6677 7352
2 4 0 1 0 31 0 0 -1 0.000 0 0 7 0 0 5
	 4651 7426 4651 7051 2101 7051 2101 7426 4651 7426
2 4 0 1 0 28 0 0 20 0.000 0 0 7 0 0 5
	 9467 9287 7727 9287 7727 8702 9467 8702 9467 9287
2 4 0 1 0 3 1 0 31 0.000 0 0 7 0 0 5
	 11550 9450 1650 9450 1650 6075 11550 6075 11550 9450
4 1 0 0 0 0 20 0.0000000 4 255 2790 8553 3453 Indirect XDMCP Query\001
4 1 0 0 0 0 20 0.0000000 4 255 1425 8613 4818 XDM Login\001
4 1 0 0 0 0 20 0.0000000 4 255 3060 8402 6902 Broadcast XDMCP Query\001
4 1 0 0 0 2 20 0.0000000 4 195 2355 3376 7351 XDMCP Broadcast\001
4 1 0 0 0 0 20 0.0000000 4 255 1425 8612 9092 XDM Login\001
