%!PS-Adobe-2.0 EPSF-2.0
%%Creator: gnuplot
%%DocumentFonts: Times-Roman
%%BoundingBox: 50 50 590 428
%%EndComments
/gnudict 40 dict def
gnudict begin
/Color false def
/Solid false def
/gnulinewidth 5.000 def
/vshift -100 def
/dl {10 mul} def
/hpt 31.5 def
/vpt 31.5 def
/M {moveto} bind def
/L {lineto} bind def
/R {rmoveto} bind def
/V {rlineto} bind def
/vpt2 vpt 2 mul def
/hpt2 hpt 2 mul def
/Lshow { currentpoint stroke M
  0 vshift R show } def
/Rshow { currentpoint stroke M
  dup stringwidth pop neg vshift R show } def
/Cshow { currentpoint stroke M
  dup stringwidth pop -2 div vshift R show } def
/DL { Color {setrgbcolor Solid {pop []} if 0 setdash }
 {pop pop pop Solid {pop []} if 0 setdash} ifelse } def
/BL { stroke gnulinewidth 2 mul setlinewidth } def
/AL { stroke gnulinewidth 2 div setlinewidth } def
/PL { stroke gnulinewidth setlinewidth } def
/LTb { BL [] 0 0 0 DL } def
/LTa { AL [1 dl 2 dl] 0 setdash 0 0 0 setrgbcolor } def
/LT0 { PL [] 0 1 0 DL } def
/LT1 { PL [4 dl 2 dl] 0 0 1 DL } def
/LT2 { PL [2 dl 3 dl] 1 0 0 DL } def
/LT3 { PL [1 dl 1.5 dl] 1 0 1 DL } def
/LT4 { PL [5 dl 2 dl 1 dl 2 dl] 0 1 1 DL } def
/LT5 { PL [4 dl 3 dl 1 dl 3 dl] 1 1 0 DL } def
/LT6 { PL [2 dl 2 dl 2 dl 4 dl] 0 0 0 DL } def
/LT7 { PL [2 dl 2 dl 2 dl 2 dl 2 dl 4 dl] 1 0.3 0 DL } def
/LT8 { PL [2 dl 2 dl 2 dl 2 dl 2 dl 2 dl 2 dl 4 dl] 0.5 0.5 0.5 DL } def
/P { stroke [] 0 setdash
  currentlinewidth 2 div sub M
  0 currentlinewidth V stroke } def
/D { stroke [] 0 setdash 2 copy vpt add M
  hpt neg vpt neg V hpt vpt neg V
  hpt vpt V hpt neg vpt V closepath stroke
  P } def
/A { stroke [] 0 setdash vpt sub M 0 vpt2 V
  currentpoint stroke M
  hpt neg vpt neg R hpt2 0 V stroke
  } def
/B { stroke [] 0 setdash 2 copy exch hpt sub exch vpt add M
  0 vpt2 neg V hpt2 0 V 0 vpt2 V
  hpt2 neg 0 V closepath stroke
  P } def
/C { stroke [] 0 setdash exch hpt sub exch vpt add M
  hpt2 vpt2 neg V currentpoint stroke M
  hpt2 neg 0 R hpt2 vpt2 V stroke } def
/T { stroke [] 0 setdash 2 copy vpt 1.12 mul add M
  hpt neg vpt -1.62 mul V
  hpt 2 mul 0 V
  hpt neg vpt 1.62 mul V closepath stroke
  P  } def
/S { 2 copy A C} def
end
%%EndProlog
gnudict begin
gsave
50 50 translate
0.050 0.050 scale
0 setgray
/Times-Roman findfont 300 scalefont setfont
newpath
LTa
1440 451 M
8937 0 V
-8937 0 R
0 6958 V
LTb
LTa
1440 986 M
8937 0 V
LTb
1440 986 M
63 0 V
8874 0 R
-63 0 V
-9054 0 R
(central_login.csh) Rshow
LTa
1440 6339 M
8937 0 V
LTb
1440 6339 M
63 0 V
8874 0 R
-63 0 V
-9054 0 R
(HEP_csh.cshrc) Rshow
LTa
1440 6874 M
8937 0 V
LTb
1440 6874 M
63 0 V
8874 0 R
-63 0 V
-9054 0 R
(HEP_csh.login) Rshow
LTa
1440 1521 M
8937 0 V
LTb
1440 1521 M
63 0 V
8874 0 R
-63 0 V
-9054 0 R
(.login) Rshow
LTa
1440 7409 M
8937 0 V
LTb
1440 7409 M
63 0 V
8874 0 R
-63 0 V
-9054 0 R
(/etc/csh.login) Rshow
LTa
1440 3662 M
8937 0 V
LTb
1440 3662 M
63 0 V
8874 0 R
-63 0 V
-9054 0 R
(cshrc.rc) Rshow
LTa
1440 4198 M
8937 0 V
LTb
1440 4198 M
63 0 V
8874 0 R
-63 0 V
-9054 0 R
(aliases.csh) Rshow
LTa
1440 4733 M
8937 0 V
LTb
1440 4733 M
63 0 V
8874 0 R
-63 0 V
-9054 0 R
(HEP_cshrc.rc) Rshow
LTa
1440 2057 M
8937 0 V
LTb
1440 2057 M
63 0 V
8874 0 R
-63 0 V
-9054 0 R
(central_env.csh) Rshow
LTa
1440 5803 M
8937 0 V
LTb
1440 5803 M
63 0 V
8874 0 R
-63 0 V
-9054 0 R
(sys.conf.csh) Rshow
LTa
1440 2592 M
8937 0 V
LTb
1440 2592 M
63 0 V
8874 0 R
-63 0 V
-9054 0 R
(.cshrc) Rshow
LTa
1440 3127 M
8937 0 V
LTb
1440 3127 M
63 0 V
8874 0 R
-63 0 V
-9054 0 R
(login.csh) Rshow
LTa
1440 5268 M
8937 0 V
LTb
1440 5268 M
63 0 V
8874 0 R
-63 0 V
-9054 0 R
(env.csh) Rshow
LTa
1440 451 M
0 6958 V
LTb
1440 451 M
0 63 V
0 6895 R
0 -63 V
0 -7195 R
(0) Cshow
LTa
3227 451 M
0 6958 V
LTb
3227 451 M
0 63 V
0 6895 R
0 -63 V
0 -7195 R
(5) Cshow
LTa
5015 451 M
0 6958 V
LTb
5015 451 M
0 63 V
0 6895 R
0 -63 V
0 -7195 R
(10) Cshow
LTa
6802 451 M
0 6958 V
LTb
6802 451 M
0 63 V
0 6895 R
0 -63 V
0 -7195 R
(15) Cshow
LTa
8590 451 M
0 6958 V
LTb
8590 451 M
0 63 V
0 6895 R
0 -63 V
0 -7195 R
(20) Cshow
LTa
10377 451 M
0 6958 V
LTb
10377 451 M
0 63 V
0 6895 R
0 -63 V
0 -7195 R
(25) Cshow
1440 451 M
8937 0 V
0 6958 V
-8937 0 V
0 -6958 V
LT0
9414 7046 M
("analyse.dat") Rshow
9594 7046 M
540 0 V
1440 7409 M
357 -535 V
358 -535 V
357 -536 V
358 0 V
357 -535 V
358 0 V
357 -535 V
358 -535 V
357 0 V
358 -536 V
357 0 V
358 1071 V
357 1606 V
6445 3127 L
357 0 V
358 3747 V
357 535 V
7875 2592 L
357 -535 V
358 0 V
357 535 V
9305 1521 L
9662 986 L
358 0 V
357 535 V
9774 7046 D
1440 7409 D
1797 6874 D
2155 6339 D
2512 5803 D
2870 5803 D
3227 5268 D
3585 5268 D
3942 4733 D
4300 4198 D
4657 4198 D
5015 3662 D
5372 3662 D
5730 4733 D
6087 6339 D
6445 3127 D
6802 3127 D
7160 6874 D
7517 7409 D
7875 2592 D
8232 2057 D
8590 2057 D
8947 2592 D
9305 1521 D
9662 986 D
10020 986 D
10377 1521 D
stroke
grestore
end
showpage
%%Trailer
