%!PS-Adobe-2.0 EPSF-2.0
%%Creator: gnuplot
%%DocumentFonts: Times-Roman
%%BoundingBox: 50 50 590 428
%%EndComments
/gnudict 40 dict def
gnudict begin
/Color false def
/Solid false def
/gnulinewidth 5.000 def
/vshift -100 def
/dl {10 mul} def
/hpt 31.5 def
/vpt 31.5 def
/M {moveto} bind def
/L {lineto} bind def
/R {rmoveto} bind def
/V {rlineto} bind def
/vpt2 vpt 2 mul def
/hpt2 hpt 2 mul def
/Lshow { currentpoint stroke M
  0 vshift R show } def
/Rshow { currentpoint stroke M
  dup stringwidth pop neg vshift R show } def
/Cshow { currentpoint stroke M
  dup stringwidth pop -2 div vshift R show } def
/DL { Color {setrgbcolor Solid {pop []} if 0 setdash }
 {pop pop pop Solid {pop []} if 0 setdash} ifelse } def
/BL { stroke gnulinewidth 2 mul setlinewidth } def
/AL { stroke gnulinewidth 2 div setlinewidth } def
/PL { stroke gnulinewidth setlinewidth } def
/LTb { BL [] 0 0 0 DL } def
/LTa { AL [1 dl 2 dl] 0 setdash 0 0 0 setrgbcolor } def
/LT0 { PL [] 0 1 0 DL } def
/LT1 { PL [4 dl 2 dl] 0 0 1 DL } def
/LT2 { PL [2 dl 3 dl] 1 0 0 DL } def
/LT3 { PL [1 dl 1.5 dl] 1 0 1 DL } def
/LT4 { PL [5 dl 2 dl 1 dl 2 dl] 0 1 1 DL } def
/LT5 { PL [4 dl 3 dl 1 dl 3 dl] 1 1 0 DL } def
/LT6 { PL [2 dl 2 dl 2 dl 4 dl] 0 0 0 DL } def
/LT7 { PL [2 dl 2 dl 2 dl 2 dl 2 dl 4 dl] 1 0.3 0 DL } def
/LT8 { PL [2 dl 2 dl 2 dl 2 dl 2 dl 2 dl 2 dl 4 dl] 0.5 0.5 0.5 DL } def
/P { stroke [] 0 setdash
  currentlinewidth 2 div sub M
  0 currentlinewidth V stroke } def
/D { stroke [] 0 setdash 2 copy vpt add M
  hpt neg vpt neg V hpt vpt neg V
  hpt vpt V hpt neg vpt V closepath stroke
  P } def
/A { stroke [] 0 setdash vpt sub M 0 vpt2 V
  currentpoint stroke M
  hpt neg vpt neg R hpt2 0 V stroke
  } def
/B { stroke [] 0 setdash 2 copy exch hpt sub exch vpt add M
  0 vpt2 neg V hpt2 0 V 0 vpt2 V
  hpt2 neg 0 V closepath stroke
  P } def
/C { stroke [] 0 setdash exch hpt sub exch vpt add M
  hpt2 vpt2 neg V currentpoint stroke M
  hpt2 neg 0 R hpt2 vpt2 V stroke } def
/T { stroke [] 0 setdash 2 copy vpt 1.12 mul add M
  hpt neg vpt -1.62 mul V
  hpt 2 mul 0 V
  hpt neg vpt 1.62 mul V closepath stroke
  P  } def
/S { 2 copy A C} def
end
%%EndProlog
gnudict begin
gsave
50 50 translate
0.050 0.050 scale
0 setgray
/Times-Roman findfont 300 scalefont setfont
newpath
LTa
1440 451 M
8937 0 V
-8937 0 R
0 6958 V
LTb
LTa
1440 1611 M
8937 0 V
LTb
1440 1611 M
63 0 V
8874 0 R
-63 0 V
-9054 0 R
(HEP_csh.login) Rshow
LTa
1440 2191 M
8937 0 V
LTb
1440 2191 M
63 0 V
8874 0 R
-63 0 V
-9054 0 R
(central_login.csh) Rshow
LTa
1440 6249 M
8937 0 V
LTb
1440 6249 M
63 0 V
8874 0 R
-63 0 V
-9054 0 R
(HEP_csh.cshrc) Rshow
LTa
1440 2770 M
8937 0 V
LTb
1440 2770 M
63 0 V
8874 0 R
-63 0 V
-9054 0 R
(.login) Rshow
LTa
1440 3350 M
8937 0 V
LTb
1440 3350 M
63 0 V
8874 0 R
-63 0 V
-9054 0 R
(cshrc.rc) Rshow
LTa
1440 3930 M
8937 0 V
LTb
1440 3930 M
63 0 V
8874 0 R
-63 0 V
-9054 0 R
(aliases.csh) Rshow
LTa
1440 4510 M
8937 0 V
LTb
1440 4510 M
63 0 V
8874 0 R
-63 0 V
-9054 0 R
(HEP_cshrc.rc) Rshow
LTa
1440 5670 M
8937 0 V
LTb
1440 5670 M
63 0 V
8874 0 R
-63 0 V
-9054 0 R
(sys.conf.csh) Rshow
LTa
1440 6829 M
8937 0 V
LTb
1440 6829 M
63 0 V
8874 0 R
-63 0 V
-9054 0 R
(central_env.csh) Rshow
LTa
1440 1031 M
8937 0 V
LTb
1440 1031 M
63 0 V
8874 0 R
-63 0 V
-9054 0 R
(login.csh) Rshow
LTa
1440 5090 M
8937 0 V
LTb
1440 5090 M
63 0 V
8874 0 R
-63 0 V
-9054 0 R
(env.csh) Rshow
LTa
1440 7409 M
8937 0 V
LTb
1440 7409 M
63 0 V
8874 0 R
-63 0 V
-9054 0 R
(.cshrc) Rshow
LTa
1440 451 M
0 6958 V
LTb
1440 451 M
0 63 V
0 6895 R
0 -63 V
0 -7195 R
(0) Cshow
LTa
3383 451 M
0 6958 V
LTb
3383 451 M
0 63 V
0 6895 R
0 -63 V
0 -7195 R
(5) Cshow
LTa
5326 451 M
0 6958 V
LTb
5326 451 M
0 63 V
0 6895 R
0 -63 V
0 -7195 R
(10) Cshow
LTa
7268 451 M
0 6958 V
LTb
7268 451 M
0 63 V
0 6895 R
0 -63 V
0 -7195 R
(15) Cshow
LTa
9211 451 M
0 6958 V
LTb
9211 451 M
0 63 V
0 6895 R
0 -63 V
0 -7195 R
(20) Cshow
1440 451 M
8937 0 V
0 6958 V
-8937 0 V
0 -6958 V
LT0
9414 7046 M
("analyse.dat") Rshow
9594 7046 M
540 0 V
1440 7409 M
389 -580 V
388 -580 V
389 -579 V
388 0 V
389 -580 V
388 0 V
389 -580 V
389 -580 V
388 0 V
389 -580 V
388 0 V
389 1160 V
388 1739 V
389 580 V
388 580 V
7657 2770 L
389 -579 V
388 -580 V
389 -580 V
388 0 V
389 580 V
388 580 V
389 579 V
9774 7046 D
1440 7409 D
1829 6829 D
2217 6249 D
2606 5670 D
2994 5670 D
3383 5090 D
3771 5090 D
4160 4510 D
4549 3930 D
4937 3930 D
5326 3350 D
5714 3350 D
6103 4510 D
6491 6249 D
6880 6829 D
7268 7409 D
7657 2770 D
8046 2191 D
8434 1611 D
8823 1031 D
9211 1031 D
9600 1611 D
9988 2191 D
10377 2770 D
stroke
grestore
end
showpage
%%Trailer
